16384 32 386
0 0 0 0 0 0 0 0 0 0 0 0 12 73 1220 6726 7110 1143 80 20 0 0 0 0 0 0 0 0 0 0 0 0 
0 0 0 0 0 0 0 0 0 0 0 2 12 114 927 7300 6830 1069 109 17 4 0 0 0 0 0 0 0 0 0 0 0 
0 0 0 0 0 0 0 0 0 0 0 0 11 110 1461 6804 6308 1516 162 12 0 0 0 0 0 0 0 0 0 0 0 0 
0 0 0 0 0 0 0 0 0 0 10 102 541 1230 2370 3827 3956 2466 1383 435 62 2 0 0 0 0 0 0 0 0 0 0 
0 0 0 0 0 0 0 0 0 0 4 43 328 1296 2660 3833 3917 2685 1223 363 32 0 0 0 0 0 0 0 0 0 0 0 
0 0 0 0 0 0 0 0 0 0 1 36 273 1150 2659 4127 3968 2667 1157 304 42 0 0 0 0 0 0 0 0 0 0 0 
0 0 0 0 0 0 0 0 0 0 0 38 241 993 2507 4413 4391 2581 937 237 45 1 0 0 0 0 0 0 0 0 0 0 
0 0 0 0 0 0 0 0 0 0 0 0 0 1 36 8143 8170 34 0 0 0 0 0 0 0 0 0 0 0 0 0 0 
0 0 0 0 0 0 0 0 0 0 0 3 38 242 965 6960 6934 966 221 44 10 1 0 0 0 0 0 0 0 0 0 0 
0 0 0 0 0 0 0 0 0 0 0 0 112 1409 2087 5061 3796 2213 1552 154 0 0 0 0 0 0 0 0 0 0 0 0 
0 0 0 0 0 0 0 0 0 0 0 0 390 1380 1459 4386 5087 2578 986 118 0 0 0 0 0 0 0 0 0 0 0 0 
0 0 0 0 0 0 0 0 0 0 0 29 301 843 1434 5650 5295 1684 977 171 0 0 0 0 0 0 0 0 0 0 0 0 
0 0 0 0 0 0 0 0 0 0 0 0 27 467 2625 5643 4890 1475 986 271 0 0 0 0 0 0 0 0 0 0 0 0 
0 0 0 0 0 0 0 0 0 0 0 2 183 848 1550 5606 5434 1880 794 85 2 0 0 0 0 0 0 0 0 0 0 0 
0 0 0 0 0 0 0 0 0 0 0 9 127 306 973 6834 6556 1242 289 44 4 0 0 0 0 0 0 0 0 0 0 0 
0 0 0 0 0 0 0 0 0 0 0 21 138 334 1349 6522 5799 1674 504 43 0 0 0 0 0 0 0 0 0 0 0 0 
0 0 0 0 0 0 0 0 0 0 0 35 289 819 1837 5229 5105 1793 1189 88 0 0 0 0 0 0 0 0 0 0 0 0 
0 0 0 0 0 0 0 0 0 0 0 2 131 721 1506 5983 5631 1453 829 128 0 0 0 0 0 0 0 0 0 0 0 0 
0 0 0 0 0 0 0 0 0 0 0 0 57 569 2171 5820 5162 1470 929 205 1 0 0 0 0 0 0 0 0 0 0 0 
0 0 0 0 0 0 0 0 0 0 0 11 126 532 1951 5756 5421 1771 624 185 7 0 0 0 0 0 0 0 0 0 0 0 
0 0 0 0 0 0 0 0 0 0 0 11 237 842 1579 5557 5442 1539 973 204 0 0 0 0 0 0 0 0 0 0 0 0 
0 0 0 0 0 0 0 0 0 0 0 0 121 514 1130 6288 6553 1213 528 37 0 0 0 0 0 0 0 0 0 0 0 0 
0 0 0 0 0 0 0 0 0 0 0 0 0 0 45 8016 8284 39 0 0 0 0 0 0 0 0 0 0 0 0 0 0 
0 0 0 0 0 0 0 0 0 0 0 0 3 74 393 7778 7637 454 43 2 0 0 0 0 0 0 0 0 0 0 0 0 
0 0 0 0 0 0 0 0 0 0 0 16 580 723 1563 4795 5330 2534 764 79 0 0 0 0 0 0 0 0 0 0 0 0 
0 0 0 0 0 0 0 0 0 0 0 14 361 683 1251 5414 6009 2091 541 20 0 0 0 0 0 0 0 0 0 0 0 0 
0 0 0 0 0 0 0 0 0 0 0 0 259 1081 1582 4994 5171 2427 775 95 0 0 0 0 0 0 0 0 0 0 0 0 
0 0 0 0 0 0 0 0 0 0 0 5 346 744 1251 5731 5758 1552 828 169 0 0 0 0 0 0 0 0 0 0 0 0 
0 0 0 0 0 0 0 0 0 0 0 1 200 645 1058 6054 6471 1376 492 87 0 0 0 0 0 0 0 0 0 0 0 0 
0 0 0 0 0 0 0 0 0 0 0 1 216 751 1924 5428 5179 1837 837 195 16 0 0 0 0 0 0 0 0 0 0 0 
0 0 0 0 0 0 0 0 0 0 0 0 99 635 2110 5919 4902 1516 1004 198 1 0 0 0 0 0 0 0 0 0 0 0 
0 0 0 0 0 0 0 0 0 0 3 48 88 250 895 6611 7230 960 255 41 3 0 0 0 0 0 0 0 0 0 0 0 
0 0 0 0 0 0 0 0 0 0 0 7 109 539 2088 5653 5642 1398 660 259 29 0 0 0 0 0 0 0 0 0 0 0 
0 0 0 0 0 0 0 0 0 0 0 0 89 451 1645 6137 6056 1301 469 192 44 0 0 0 0 0 0 0 0 0 0 0 
0 0 0 0 0 0 0 0 0 0 0 9 74 463 1573 6045 6216 1352 566 85 1 0 0 0 0 0 0 0 0 0 0 0 
0 0 0 0 0 0 0 0 0 0 1 30 75 775 1376 5407 6416 1877 384 43 0 0 0 0 0 0 0 0 0 0 0 0 
0 0 0 0 0 0 0 0 0 0 0 0 62 184 860 7082 7061 925 154 45 11 0 0 0 0 0 0 0 0 0 0 0 
0 0 0 0 0 0 0 0 0 0 0 8 315 1229 2102 3629 5277 3062 758 4 0 0 0 0 0 0 0 0 0 0 0 0 
0 0 0 0 0 0 0 0 0 0 0 23 569 1023 1367 4626 5243 2503 950 80 0 0 0 0 0 0 0 0 0 0 0 0 
0 0 0 0 0 0 0 0 0 0 0 5 323 1154 2121 4204 4923 2450 1027 176 1 0 0 0 0 0 0 0 0 0 0 0 
0 0 0 0 0 0 0 0 0 0 0 31 261 362 1063 6408 6195 1485 542 33 4 0 0 0 0 0 0 0 0 0 0 0 
0 0 0 0 0 0 0 0 0 0 0 11 188 811 1554 5546 5700 1651 734 182 7 0 0 0 0 0 0 0 0 0 0 0 
0 0 0 0 0 0 0 0 0 0 0 0 0 0 163 8042 8025 140 14 0 0 0 0 0 0 0 0 0 0 0 0 0 
0 0 0 0 0 0 0 0 0 0 0 0 0 4 68 8142 8100 67 2 1 0 0 0 0 0 0 0 0 0 0 0 0 
0 0 0 0 0 0 0 0 0 0 0 5 100 520 2179 5476 5412 1916 553 194 29 0 0 0 0 0 0 0 0 0 0 0 
0 0 0 0 0 0 0 0 0 0 0 32 151 379 1544 6091 6013 1623 433 89 28 1 0 0 0 0 0 0 0 0 0 0 
0 0 0 0 0 0 0 0 0 0 0 20 277 822 1516 5441 5526 1767 803 205 7 0 0 0 0 0 0 0 0 0 0 0 
0 0 0 0 0 0 0 0 0 0 0 0 322 843 1622 5148 5335 2270 810 34 0 0 0 0 0 0 0 0 0 0 0 0 
0 0 0 0 0 0 0 0 0 0 0 7 278 1084 1968 4906 4631 2180 1166 164 0 0 0 0 0 0 0 0 0 0 0 0 
0 0 0 0 0 0 0 0 0 0 0 1 129 785 2246 5224 4937 1864 1119 79 0 0 0 0 0 0 0 0 0 0 0 0 
0 0 0 0 0 0 0 0 0 0 0 30 160 742 1836 5494 5152 2038 812 120 0 0 0 0 0 0 0 0 0 0 0 0 
0 0 0 0 0 0 0 0 0 0 0 0 200 1158 2993 4154 3707 2487 1432 236 17 0 0 0 0 0 0 0 0 0 0 0 
0 0 0 0 0 0 0 0 0 0 1 70 273 692 2003 5217 4952 2042 900 231 3 0 0 0 0 0 0 0 0 0 0 0 
0 0 0 0 0 0 0 0 0 0 0 3 235 758 2222 5100 4843 1947 1153 119 4 0 0 0 0 0 0 0 0 0 0 0 
0 0 0 0 0 0 0 0 0 0 0 6 199 884 1430 5302 5897 1871 770 25 0 0 0 0 0 0 0 0 0 0 0 0 
0 0 0 0 0 0 0 0 0 0 0 11 102 535 1495 6000 6000 1526 669 46 0 0 0 0 0 0 0 0 0 0 0 0 
0 0 0 0 0 0 0 0 0 0 1 19 211 809 1770 5345 5329 1749 1006 140 5 0 0 0 0 0 0 0 0 0 0 0 
0 0 0 0 0 0 0 0 0 0 0 0 90 438 1593 6304 5868 1268 711 111 1 0 0 0 0 0 0 0 0 0 0 0 
0 0 0 0 0 0 0 0 0 0 0 5 168 583 1472 6198 5760 1407 580 167 43 1 0 0 0 0 0 0 0 0 0 0 
0 0 0 0 0 0 0 0 0 0 0 32 247 631 1792 5414 5563 1863 616 203 23 0 0 0 0 0 0 0 0 0 0 0 
0 0 0 0 0 0 0 0 0 0 0 0 28 262 1153 7085 6357 1035 365 84 15 0 0 0 0 0 0 0 0 0 0 0 
0 0 0 0 0 0 0 0 0 0 0 5 126 725 2212 5294 5063 1966 762 208 23 0 0 0 0 0 0 0 0 0 0 0 
0 0 0 0 0 0 0 0 0 0 0 37 123 633 1030 6630 6079 890 753 206 3 0 0 0 0 0 0 0 0 0 0 0 
0 0 0 0 0 0 0 0 0 0 0 58 234 640 1170 5664 6227 1815 524 52 0 0 0 0 0 0 0 0 0 0 0 0 
0 0 0 0 0 0 0 0 0 0 0 16 218 577 1460 6357 5053 1816 748 137 2 0 0 0 0 0 0 0 0 0 0 0 
0 0 0 0 0 0 0 0 0 0 0 1 86 450 1751 6225 5603 1412 782 74 0 0 0 0 0 0 0 0 0 0 0 0 
0 0 0 0 0 0 0 0 0 0 0 0 0 4 49 8037 8237 53 4 0 0 0 0 0 0 0 0 0 0 0 0 0 
0 0 0 0 0 0 0 0 0 0 0 19 404 902 1241 5389 5522 1871 900 131 5 0 0 0 0 0 0 0 0 0 0 0 
0 0 0 0 0 0 0 0 0 0 0 3 249 792 1518 5434 5685 1836 768 95 4 0 0 0 0 0 0 0 0 0 0 0 
0 0 0 0 0 0 0 0 0 0 0 2 266 659 1750 5250 5671 2073 645 68 0 0 0 0 0 0 0 0 0 0 0 0 
0 0 0 0 0 0 0 0 0 0 0 1 194 784 2011 5143 5221 2100 777 144 9 0 0 0 0 0 0 0 0 0 0 0 
0 0 0 0 0 0 0 0 0 0 0 23 546 1022 2503 3568 4236 3277 1153 56 0 0 0 0 0 0 0 0 0 0 0 0 
0 0 0 0 0 0 0 0 0 0 0 0 82 812 2628 4778 4781 2201 901 194 7 0 0 0 0 0 0 0 0 0 0 0 
0 0 0 0 0 0 0 0 0 0 0 24 433 492 1534 5163 5913 2318 483 23 1 0 0 0 0 0 0 0 0 0 0 0 
0 0 0 0 0 0 0 0 0 0 0 6 254 1244 1740 4588 5033 2400 1035 84 0 0 0 0 0 0 0 0 0 0 0 0 
0 0 0 0 0 0 0 0 0 0 0 0 34 925 2957 4894 4052 1870 1285 365 2 0 0 0 0 0 0 0 0 0 0 0 
0 0 0 0 0 0 0 0 0 0 0 24 137 904 1949 5561 4707 1731 1193 178 0 0 0 0 0 0 0 0 0 0 0 0 
0 0 0 0 0 0 0 0 0 0 0 15 235 658 1467 5776 5759 1543 844 87 0 0 0 0 0 0 0 0 0 0 0 0 
0 0 0 0 0 0 0 0 0 0 0 6 129 686 2007 5702 4926 1841 915 168 4 0 0 0 0 0 0 0 0 0 0 0 
0 0 0 0 0 0 0 0 0 0 0 38 171 578 1215 6170 6057 1397 641 117 0 0 0 0 0 0 0 0 0 0 0 0 
0 0 0 0 0 0 0 0 0 0 0 4 286 837 1365 5308 5839 1967 757 21 0 0 0 0 0 0 0 0 0 0 0 0 
0 0 0 0 0 0 0 0 0 0 2 41 131 488 1150 6367 6120 1585 405 95 0 0 0 0 0 0 0 0 0 0 0 0 
0 0 0 0 0 0 0 0 0 0 0 5 184 613 1564 6011 5421 1661 847 78 0 0 0 0 0 0 0 0 0 0 0 0 
0 0 0 0 0 0 0 0 0 0 0 0 96 825 1731 5573 5556 1582 917 104 0 0 0 0 0 0 0 0 0 0 0 0 
0 0 0 0 0 0 0 0 0 0 0 0 0 5 74 8079 8159 64 3 0 0 0 0 0 0 0 0 0 0 0 0 0 
0 0 0 0 0 0 0 0 0 0 0 0 3 51 475 7706 7587 505 53 3 1 0 0 0 0 0 0 0 0 0 0 0 
0 0 0 0 0 0 0 0 0 0 0 0 221 1023 2154 4496 4759 2932 742 54 3 0 0 0 0 0 0 0 0 0 0 0 
0 0 0 0 0 0 0 0 0 0 0 19 313 758 1554 5159 5649 2253 595 84 0 0 0 0 0 0 0 0 0 0 0 0 
0 0 0 0 0 0 0 0 0 0 0 0 131 1404 1741 4742 4980 2137 1124 125 0 0 0 0 0 0 0 0 0 0 0 0 
0 0 0 0 0 0 0 0 0 0 0 0 62 457 1426 6380 6064 1452 489 54 0 0 0 0 0 0 0 0 0 0 0 0 
0 0 0 0 0 0 0 0 0 0 1 20 291 1284 2056 4376 4703 2062 1402 188 1 0 0 0 0 0 0 0 0 0 0 0 
0 0 0 0 0 0 0 0 0 0 0 7 51 739 1644 5321 6205 1946 432 34 5 0 0 0 0 0 0 0 0 0 0 0 
0 0 0 0 0 0 0 0 0 0 0 19 134 723 1848 5618 5424 1517 980 121 0 0 0 0 0 0 0 0 0 0 0 0 
0 0 0 0 0 0 0 0 0 0 0 20 127 821 1632 5827 5288 1502 994 173 0 0 0 0 0 0 0 0 0 0 0 0 
0 0 0 0 0 0 0 0 0 0 0 0 4 56 494 7720 7487 549 68 5 1 0 0 0 0 0 0 0 0 0 0 0 
0 0 0 0 0 0 0 0 0 0 0 70 325 1002 2129 4685 4560 2080 1376 154 3 0 0 0 0 0 0 0 0 0 0 0 
0 0 0 0 0 0 0 0 0 0 0 0 272 674 1533 5437 5869 1843 734 22 0 0 0 0 0 0 0 0 0 0 0 0 
0 0 0 0 0 0 0 0 0 0 0 0 57 148 1434 6745 6140 1590 263 7 0 0 0 0 0 0 0 0 0 0 0 0 
0 0 0 0 0 0 0 0 0 0 0 18 37 266 1542 6649 5950 1414 415 93 0 0 0 0 0 0 0 0 0 0 0 0 
0 0 0 0 0 0 0 0 0 0 0 4 131 1011 2629 4918 3869 2233 1488 101 0 0 0 0 0 0 0 0 0 0 0 0 
0 0 0 0 0 0 0 0 0 0 0 0 144 831 1798 5840 4725 1925 1032 89 0 0 0 0 0 0 0 0 0 0 0 0 
0 0 0 0 0 0 0 0 0 0 0 1 4 53 504 7744 7460 552 62 3 1 0 0 0 0 0 0 0 0 0 0 0 
0 0 0 0 0 0 0 0 0 0 1 77 379 970 1525 4625 5337 2607 774 88 1 0 0 0 0 0 0 0 0 0 0 0 
0 0 0 0 0 0 0 0 0 0 0 0 117 672 1574 5775 5990 1500 642 114 0 0 0 0 0 0 0 0 0 0 0 0 
0 0 0 0 0 0 0 0 0 0 0 17 165 741 1634 5704 5320 1884 845 74 0 0 0 0 0 0 0 0 0 0 0 0 
0 0 0 0 0 0 0 0 0 0 0 15 201 615 1663 5654 5409 2259 507 54 7 0 0 0 0 0 0 0 0 0 0 0 
0 0 0 0 0 0 0 0 0 0 2 23 109 544 2070 5831 4968 1803 876 158 0 0 0 0 0 0 0 0 0 0 0 0 
0 0 0 0 0 0 0 0 0 0 13 77 146 915 2333 4719 4634 2264 1113 131 36 3 0 0 0 0 0 0 0 0 0 0 
0 0 0 0 0 0 0 0 0 0 2 19 82 585 1673 5955 5588 1676 781 23 0 0 0 0 0 0 0 0 0 0 0 0 
0 0 0 0 0 0 0 0 0 0 0 0 1 14 168 8057 7959 177 8 0 0 0 0 0 0 0 0 0 0 0 0 0 
0 0 0 0 0 0 0 0 0 0 0 0 1 18 176 7971 8036 168 12 2 0 0 0 0 0 0 0 0 0 0 0 0 
0 0 0 0 0 0 0 0 0 0 0 0 412 940 1535 4789 5502 2404 764 38 0 0 0 0 0 0 0 0 0 0 0 0 
0 0 0 0 0 0 0 0 0 0 0 0 86 791 2511 5185 4468 2018 1181 144 0 0 0 0 0 0 0 0 0 0 0 0 
0 0 0 0 0 0 0 0 0 0 0 0 131 923 1837 5016 5247 2553 633 44 0 0 0 0 0 0 0 0 0 0 0 0 
0 0 0 0 0 0 0 0 0 0 0 8 250 761 1932 5152 5183 1982 972 142 2 0 0 0 0 0 0 0 0 0 0 0 
0 0 0 0 0 0 0 0 0 0 0 11 69 521 1944 6004 5302 1531 862 140 0 0 0 0 0 0 0 0 0 0 0 0 
0 0 0 0 0 0 0 0 0 0 0 2 167 747 1606 5509 5665 1956 684 48 0 0 0 0 0 0 0 0 0 0 0 0 
0 0 0 0 0 0 0 0 0 0 0 0 13 347 2174 5692 5883 1615 602 58 0 0 0 0 0 0 0 0 0 0 0 0 
0 0 0 0 0 0 0 0 0 0 0 0 0 6 60 8117 8148 48 5 0 0 0 0 0 0 0 0 0 0 0 0 0 
0 0 0 0 0 0 0 0 0 0 0 0 10 94 593 7578 7390 600 104 14 1 0 0 0 0 0 0 0 0 0 0 0 
0 0 0 0 0 0 0 0 0 0 0 3 82 607 2525 5399 4660 2095 819 192 2 0 0 0 0 0 0 0 0 0 0 0 
0 0 0 0 0 0 0 0 0 0 0 0 26 247 1040 6809 6874 1290 98 0 0 0 0 0 0 0 0 0 0 0 0 0 
0 0 0 0 0 0 0 0 0 13 24 54 165 564 1461 5811 5801 1826 537 101 25 2 0 0 0 0 0 0 0 0 0 0 
0 0 0 0 0 0 0 0 0 0 0 5 196 463 1352 6143 6185 1379 542 89 30 0 0 0 0 0 0 0 0 0 0 0 
0 0 0 0 0 0 0 0 0 0 3 6 46 137 420 7399 7791 357 136 76 13 0 0 0 0 0 0 0 0 0 0 0 
0 0 0 0 0 0 0 0 0 0 0 2 110 799 2738 4808 4369 2247 1071 239 1 0 0 0 0 0 0 0 0 0 0 0 
0 0 0 0 0 0 0 0 0 0 0 3 178 1326 3122 3696 3601 2738 1466 240 14 0 0 0 0 0 0 0 0 0 0 0 
0 0 0 0 0 0 0 0 0 0 0 5 184 915 2404 4834 4648 2085 1115 187 7 0 0 0 0 0 0 0 0 0 0 0 
0 0 0 0 0 0 0 0 0 0 0 0 16 274 1137 6693 6774 1294 190 6 0 0 0 0 0 0 0 0 0 0 0 0 
0 0 0 0 0 0 0 0 0 0 3 24 126 557 2081 5434 5420 2050 468 166 51 4 0 0 0 0 0 0 0 0 0 0 
0 0 0 0 0 0 0 0 0 0 0 0 118 475 1494 6371 5729 1489 593 102 13 0 0 0 0 0 0 0 0 0 0 0 
0 0 0 0 0 0 0 0 0 0 0 43 232 490 1492 5882 5730 1849 557 109 0 0 0 0 0 0 0 0 0 0 0 0 
0 0 0 0 0 0 0 0 0 0 0 0 11 343 1631 6323 6081 1523 425 43 4 0 0 0 0 0 0 0 0 0 0 0 
0 0 0 0 0 0 0 0 0 0 0 0 37 687 2366 5364 5213 1497 1052 165 3 0 0 0 0 0 0 0 0 0 0 0 
0 0 0 0 0 0 0 0 0 0 0 1 61 387 1610 6184 6191 1250 613 83 4 0 0 0 0 0 0 0 0 0 0 0 
0 0 0 0 0 0 0 0 0 0 0 0 229 1264 1621 4912 5000 2158 1057 143 0 0 0 0 0 0 0 0 0 0 0 0 
0 0 0 0 0 0 0 0 0 0 1 6 98 346 1206 6592 6404 1308 334 73 16 0 0 0 0 0 0 0 0 0 0 0 
0 0 0 0 0 0 0 0 0 0 0 16 125 686 1592 5782 5585 1822 734 41 1 0 0 0 0 0 0 0 0 0 0 0 
0 0 0 0 0 0 0 0 0 0 0 9 80 566 1914 5749 5572 1747 547 145 52 3 0 0 0 0 0 0 0 0 0 0 
0 0 0 0 0 0 0 0 0 0 0 18 190 1037 2038 4974 4955 1827 1078 267 0 0 0 0 0 0 0 0 0 0 0 0 
0 0 0 0 0 0 0 0 0 0 0 4 201 798 2055 4854 5396 2304 684 84 4 0 0 0 0 0 0 0 0 0 0 0 
0 0 0 0 0 0 0 0 0 0 0 23 182 719 1225 5844 6248 1303 657 180 3 0 0 0 0 0 0 0 0 0 0 0 
0 0 0 0 0 0 0 0 0 0 0 2 53 330 1597 5949 6677 1566 176 31 3 0 0 0 0 0 0 0 0 0 0 0 
0 0 0 0 0 0 0 0 0 0 0 3 122 793 1847 4882 5961 2212 548 16 0 0 0 0 0 0 0 0 0 0 0 0 
0 0 0 0 0 0 0 0 0 0 0 33 273 730 1838 5056 5470 2150 760 74 0 0 0 0 0 0 0 0 0 0 0 0 
0 0 0 0 0 0 0 0 0 0 0 0 0 6 67 8126 8110 70 4 1 0 0 0 0 0 0 0 0 0 0 0 0 
0 0 0 0 0 0 0 0 0 0 0 7 64 301 1280 6565 6480 1284 344 48 11 0 0 0 0 0 0 0 0 0 0 0 
0 0 0 0 0 0 0 0 0 0 15 58 314 948 2572 4472 3886 2659 1155 264 39 2 0 0 0 0 0 0 0 0 0 0 
0 0 0 0 0 0 0 0 0 0 0 0 107 664 1386 5811 6138 1800 459 19 0 0 0 0 0 0 0 0 0 0 0 0 
0 0 0 0 0 0 0 0 0 0 0 6 163 651 1127 6121 6268 1447 490 102 9 0 0 0 0 0 0 0 0 0 0 0 
0 0 0 0 0 0 0 0 0 0 2 42 277 922 1897 4927 5131 1918 1009 246 13 0 0 0 0 0 0 0 0 0 0 0 
0 0 0 0 0 0 0 0 0 0 1 41 231 796 1657 5420 5260 2062 789 125 2 0 0 0 0 0 0 0 0 0 0 0 
0 0 0 0 0 0 0 0 0 0 3 44 153 342 958 6601 6661 1079 454 89 0 0 0 0 0 0 0 0 0 0 0 0 
0 0 0 0 0 0 0 0 0 0 0 7 163 675 1643 5869 5440 1702 737 144 4 0 0 0 0 0 0 0 0 0 0 0 
0 0 0 0 0 0 0 0 0 0 0 14 110 418 1310 6294 6436 1271 428 99 4 0 0 0 0 0 0 0 0 0 0 0 
0 0 0 0 0 0 0 0 0 0 0 1 91 615 1528 6022 5913 1498 565 137 14 0 0 0 0 0 0 0 0 0 0 0 
0 0 0 0 0 0 0 0 0 0 0 5 91 549 1602 6070 5833 1629 473 124 7 1 0 0 0 0 0 0 0 0 0 0 
0 0 0 0 0 0 0 0 0 1 5 16 190 939 2103 4947 4907 2177 893 188 16 2 0 0 0 0 0 0 0 0 0 0 
0 0 0 0 0 0 0 0 0 0 0 11 94 476 1898 5710 5661 1929 494 101 9 1 0 0 0 0 0 0 0 0 0 0 
0 0 0 0 0 0 0 0 0 0 9 35 173 804 2300 4954 4824 2208 834 203 33 7 0 0 0 0 0 0 0 0 0 0 
0 0 0 0 0 0 0 0 0 0 1 55 225 777 2388 4608 4869 2462 767 202 25 5 0 0 0 0 0 0 0 0 0 0 
0 0 0 0 0 0 0 0 0 0 8 53 190 818 2493 4516 4781 2538 739 196 51 1 0 0 0 0 0 0 0 0 0 0 
0 0 0 0 0 0 0 0 0 0 7 27 143 671 2420 4944 5003 2195 790 161 21 2 0 0 0 0 0 0 0 0 0 0 
0 0 0 0 0 0 0 0 0 0 0 0 0 8 55 8161 8089 68 2 1 0 0 0 0 0 0 0 0 0 0 0 0 
0 0 0 0 0 0 0 0 0 0 12 26 90 1161 1733 4965 5322 1943 969 109 31 16 7 0 0 0 0 0 0 0 0 0 
0 0 0 0 0 0 0 0 0 0 0 16 169 525 1043 6204 6551 1322 470 78 6 0 0 0 0 0 0 0 0 0 0 0 
0 0 0 0 0 0 0 0 0 0 0 4 132 266 1183 6672 6606 1101 316 85 19 0 0 0 0 0 0 0 0 0 0 0 
0 0 0 0 0 0 0 0 0 0 0 10 131 374 891 6909 6674 788 458 142 7 0 0 0 0 0 0 0 0 0 0 0 
0 0 0 0 0 0 0 0 0 0 0 14 121 830 1556 5606 5766 1617 608 228 38 0 0 0 0 0 0 0 0 0 0 0 
0 0 0 0 0 0 0 0 0 0 0 11 61 272 2024 5802 5831 1998 347 35 3 0 0 0 0 0 0 0 0 0 0 0 
0 0 0 0 0 0 0 0 0 0 10 113 445 1183 2339 3563 4246 3129 1142 196 18 0 0 0 0 0 0 0 0 0 0 0 
0 0 0 0 0 0 0 0 0 0 0 10 192 681 1691 5526 5701 1728 716 138 1 0 0 0 0 0 0 0 0 0 0 0 
0 0 0 0 0 0 0 0 0 0 0 0 13 636 2452 5540 4536 2300 863 44 0 0 0 0 0 0 0 0 0 0 0 0 
0 0 0 0 0 0 0 0 0 0 0 2 132 723 2456 5406 4529 1783 981 371 1 0 0 0 0 0 0 0 0 0 0 0 
0 0 0 0 0 0 0 0 0 0 8 30 258 752 1838 5396 5230 1614 1106 150 2 0 0 0 0 0 0 0 0 0 0 0 
0 0 0 0 0 0 0 0 0 0 0 17 179 933 2371 4691 4674 2372 973 164 10 0 0 0 0 0 0 0 0 0 0 0 
0 0 0 0 0 0 0 0 0 0 4 19 177 877 2548 4488 4677 2612 792 163 27 0 0 0 0 0 0 0 0 0 0 0 
0 0 0 0 0 0 0 0 0 3 13 87 330 1199 2219 4264 4366 2430 1056 312 93 12 0 0 0 0 0 0 0 0 0 0 
0 0 0 0 0 0 0 0 0 0 0 1 32 478 2087 5695 5471 2027 508 78 7 0 0 0 0 0 0 0 0 0 0 0 
0 0 0 0 0 0 0 0 0 0 22 126 487 1334 2631 3737 3625 2308 1351 600 133 30 0 0 0 0 0 0 0 0 0 0 
0 0 0 0 0 0 0 0 0 0 0 0 15 411 2635 5035 5300 2582 403 3 0 0 0 0 0 0 0 0 0 0 0 0 
0 0 0 0 0 0 0 0 0 0 0 3 109 417 1880 6166 5145 2087 473 101 3 0 0 0 0 0 0 0 0 0 0 0 
0 0 0 0 0 0 0 0 0 0 0 5 87 565 2048 5966 5225 1466 712 292 18 0 0 0 0 0 0 0 0 0 0 0 
0 0 0 0 0 0 0 0 0 0 0 0 151 622 1441 6007 5915 1496 631 117 4 0 0 0 0 0 0 0 0 0 0 0 
0 0 0 0 0 0 0 0 0 0 0 0 72 249 1429 6528 6443 1260 336 67 0 0 0 0 0 0 0 0 0 0 0 0 
0 0 0 0 0 0 0 0 0 0 0 8 169 1285 2809 3923 4042 2725 1074 329 20 0 0 0 0 0 0 0 0 0 0 0 
0 0 0 0 0 0 0 0 0 0 6 47 263 687 1535 5768 5543 1478 693 252 100 12 0 0 0 0 0 0 0 0 0 0 
0 0 0 0 0 0 0 0 0 0 0 11 76 392 773 6902 7028 708 317 171 6 0 0 0 0 0 0 0 0 0 0 0 
0 0 0 0 0 0 0 0 0 0 0 3 33 218 811 7224 7030 825 193 38 9 0 0 0 0 0 0 0 0 0 0 0 
0 0 0 0 0 0 0 0 0 0 6 47 284 903 2406 4406 4734 2408 933 215 40 2 0 0 0 0 0 0 0 0 0 0 
0 0 0 0 0 0 0 0 0 0 6 43 254 1157 2709 4054 3956 2719 1157 290 36 3 0 0 0 0 0 0 0 0 0 0 
0 0 0 0 0 0 0 0 0 2 21 113 490 1373 2484 3638 3657 2611 1384 503 105 3 0 0 0 0 0 0 0 0 0 0 
0 0 0 0 0 0 0 0 0 0 2 43 308 998 2400 4413 4401 2512 993 263 50 1 0 0 0 0 0 0 0 0 0 0 

16384 32 386
0 0 0 0 0 0 0 0 0 0 0 0 12 73 1220 6726 7110 1143 80 20 0 0 0 0 0 0 0 0 0 0 0 0 
0 0 0 0 0 0 0 0 0 0 0 2 12 114 927 7300 6830 1069 109 17 4 0 0 0 0 0 0 0 0 0 0 0 
0 0 0 0 0 0 0 0 0 0 0 0 11 110 1461 6804 6308 1516 162 12 0 0 0 0 0 0 0 0 0 0 0 0 
0 0 0 0 0 0 0 0 0 0 10 102 541 1230 2370 3827 3956 2466 1383 435 62 2 0 0 0 0 0 0 0 0 0 0 
0 0 0 0 0 0 0 0 0 0 4 43 328 1296 2660 3833 3917 2685 1223 363 32 0 0 0 0 0 0 0 0 0 0 0 
0 0 0 0 0 0 0 0 0 0 1 36 273 1150 2659 4127 3968 2667 1157 304 42 0 0 0 0 0 0 0 0 0 0 0 
0 0 0 0 0 0 0 0 0 0 0 38 241 993 2507 4413 4391 2581 937 237 45 1 0 0 0 0 0 0 0 0 0 0 
0 0 0 0 0 0 0 0 0 0 0 0 0 1 36 8143 8170 34 0 0 0 0 0 0 0 0 0 0 0 0 0 0 
0 0 0 0 0 0 0 0 0 0 0 3 38 242 965 6960 6934 966 221 44 10 1 0 0 0 0 0 0 0 0 0 0 
0 0 0 0 0 0 0 0 0 0 0 0 112 1409 2087 5061 3796 2213 1552 154 0 0 0 0 0 0 0 0 0 0 0 0 
0 0 0 0 0 0 0 0 0 0 0 0 390 1380 1459 4386 5087 2578 986 118 0 0 0 0 0 0 0 0 0 0 0 0 
0 0 0 0 0 0 0 0 0 0 0 29 301 843 1434 5650 5295 1684 977 171 0 0 0 0 0 0 0 0 0 0 0 0 
0 0 0 0 0 0 0 0 0 0 0 0 27 467 2625 5643 4890 1475 986 271 0 0 0 0 0 0 0 0 0 0 0 0 
0 0 0 0 0 0 0 0 0 0 0 2 183 848 1550 5606 5434 1880 794 85 2 0 0 0 0 0 0 0 0 0 0 0 
0 0 0 0 0 0 0 0 0 0 0 9 127 306 973 6834 6556 1242 289 44 4 0 0 0 0 0 0 0 0 0 0 0 
0 0 0 0 0 0 0 0 0 0 0 21 138 334 1349 6522 5799 1674 504 43 0 0 0 0 0 0 0 0 0 0 0 0 
0 0 0 0 0 0 0 0 0 0 0 35 289 819 1837 5229 5105 1793 1189 88 0 0 0 0 0 0 0 0 0 0 0 0 
0 0 0 0 0 0 0 0 0 0 0 2 131 721 1506 5983 5631 1453 829 128 0 0 0 0 0 0 0 0 0 0 0 0 
0 0 0 0 0 0 0 0 0 0 0 0 57 569 2171 5820 5162 1470 929 205 1 0 0 0 0 0 0 0 0 0 0 0 
0 0 0 0 0 0 0 0 0 0 0 11 126 532 1951 5756 5421 1771 624 185 7 0 0 0 0 0 0 0 0 0 0 0 
0 0 0 0 0 0 0 0 0 0 0 11 237 842 1579 5557 5442 1539 973 204 0 0 0 0 0 0 0 0 0 0 0 0 
0 0 0 0 0 0 0 0 0 0 0 0 121 514 1130 6288 6553 1213 528 37 0 0 0 0 0 0 0 0 0 0 0 0 
0 0 0 0 0 0 0 0 0 0 0 0 0 0 45 8016 8284 39 0 0 0 0 0 0 0 0 0 0 0 0 0 0 
0 0 0 0 0 0 0 0 0 0 0 0 3 74 393 7778 7637 454 43 2 0 0 0 0 0 0 0 0 0 0 0 0 
0 0 0 0 0 0 0 0 0 0 0 16 580 723 1563 4795 5330 2534 764 79 0 0 0 0 0 0 0 0 0 0 0 0 
0 0 0 0 0 0 0 0 0 0 0 14 361 683 1251 5414 6009 2091 541 20 0 0 0 0 0 0 0 0 0 0 0 0 
0 0 0 0 0 0 0 0 0 0 0 0 259 1081 1582 4994 5171 2427 775 95 0 0 0 0 0 0 0 0 0 0 0 0 
0 0 0 0 0 0 0 0 0 0 0 5 346 744 1251 5731 5758 1552 828 169 0 0 0 0 0 0 0 0 0 0 0 0 
0 0 0 0 0 0 0 0 0 0 0 1 200 645 1058 6054 6471 1376 492 87 0 0 0 0 0 0 0 0 0 0 0 0 
0 0 0 0 0 0 0 0 0 0 0 1 216 751 1924 5428 5179 1837 837 195 16 0 0 0 0 0 0 0 0 0 0 0 
0 0 0 0 0 0 0 0 0 0 0 0 99 635 2110 5919 4902 1516 1004 198 1 0 0 0 0 0 0 0 0 0 0 0 
0 0 0 0 0 0 0 0 0 0 3 48 88 250 895 6611 7230 960 255 41 3 0 0 0 0 0 0 0 0 0 0 0 
0 0 0 0 0 0 0 0 0 0 0 7 109 539 2088 5653 5642 1398 660 259 29 0 0 0 0 0 0 0 0 0 0 0 
0 0 0 0 0 0 0 0 0 0 0 0 89 451 1645 6137 6056 1301 469 192 44 0 0 0 0 0 0 0 0 0 0 0 
0 0 0 0 0 0 0 0 0 0 0 9 74 463 1573 6045 6216 1352 566 85 1 0 0 0 0 0 0 0 0 0 0 0 
0 0 0 0 0 0 0 0 0 0 1 30 75 775 1376 5407 6416 1877 384 43 0 0 0 0 0 0 0 0 0 0 0 0 
0 0 0 0 0 0 0 0 0 0 0 0 62 184 860 7082 7061 925 154 45 11 0 0 0 0 0 0 0 0 0 0 0 
0 0 0 0 0 0 0 0 0 0 0 8 315 1229 2102 3629 5277 3062 758 4 0 0 0 0 0 0 0 0 0 0 0 0 
0 0 0 0 0 0 0 0 0 0 0 23 569 1023 1367 4626 5243 2503 950 80 0 0 0 0 0 0 0 0 0 0 0 0 
0 0 0 0 0 0 0 0 0 0 0 5 323 1154 2121 4204 4923 2450 1027 176 1 0 0 0 0 0 0 0 0 0 0 0 
0 0 0 0 0 0 0 0 0 0 0 31 261 362 1063 6408 6195 1485 542 33 4 0 0 0 0 0 0 0 0 0 0 0 
0 0 0 0 0 0 0 0 0 0 0 11 188 811 1554 5546 5700 1651 734 182 7 0 0 0 0 0 0 0 0 0 0 0 
0 0 0 0 0 0 0 0 0 0 0 0 0 0 163 8042 8025 140 14 0 0 0 0 0 0 0 0 0 0 0 0 0 
0 0 0 0 0 0 0 0 0 0 0 0 0 4 68 8142 8100 67 2 1 0 0 0 0 0 0 0 0 0 0 0 0 
0 0 0 0 0 0 0 0 0 0 0 5 100 520 2179 5476 5412 1916 553 194 29 0 0 0 0 0 0 0 0 0 0 0 
0 0 0 0 0 0 0 0 0 0 0 32 151 379 1544 6091 6013 1623 433 89 28 1 0 0 0 0 0 0 0 0 0 0 
0 0 0 0 0 0 0 0 0 0 0 20 277 822 1516 5441 5526 1767 803 205 7 0 0 0 0 0 0 0 0 0 0 0 
0 0 0 0 0 0 0 0 0 0 0 0 322 843 1622 5148 5335 2270 810 34 0 0 0 0 0 0 0 0 0 0 0 0 
0 0 0 0 0 0 0 0 0 0 0 7 278 1084 1968 4906 4631 2180 1166 164 0 0 0 0 0 0 0 0 0 0 0 0 
0 0 0 0 0 0 0 0 0 0 0 1 129 785 2246 5224 4937 1864 1119 79 0 0 0 0 0 0 0 0 0 0 0 0 
0 0 0 0 0 0 0 0 0 0 0 30 160 742 1836 5494 5152 2038 812 120 0 0 0 0 0 0 0 0 0 0 0 0 
0 0 0 0 0 0 0 0 0 0 0 0 200 1158 2993 4154 3707 2487 1432 236 17 0 0 0 0 0 0 0 0 0 0 0 
0 0 0 0 0 0 0 0 0 0 1 70 273 692 2003 5217 4952 2042 900 231 3 0 0 0 0 0 0 0 0 0 0 0 
0 0 0 0 0 0 0 0 0 0 0 3 235 758 2222 5100 4843 1947 1153 119 4 0 0 0 0 0 0 0 0 0 0 0 
0 0 0 0 0 0 0 0 0 0 0 6 199 884 1430 5302 5897 1871 770 25 0 0 0 0 0 0 0 0 0 0 0 0 
0 0 0 0 0 0 0 0 0 0 0 11 102 535 1495 6000 6000 1526 669 46 0 0 0 0 0 0 0 0 0 0 0 0 
0 0 0 0 0 0 0 0 0 0 1 19 211 809 1770 5345 5329 1749 1006 140 5 0 0 0 0 0 0 0 0 0 0 0 
0 0 0 0 0 0 0 0 0 0 0 0 90 438 1593 6304 5868 1268 711 111 1 0 0 0 0 0 0 0 0 0 0 0 
0 0 0 0 0 0 0 0 0 0 0 5 168 583 1472 6198 5760 1407 580 167 43 1 0 0 0 0 0 0 0 0 0 0 
0 0 0 0 0 0 0 0 0 0 0 32 247 631 1792 5414 5563 1863 616 203 23 0 0 0 0 0 0 0 0 0 0 0 
0 0 0 0 0 0 0 0 0 0 0 0 28 262 1153 7085 6357 1035 365 84 15 0 0 0 0 0 0 0 0 0 0 0 
0 0 0 0 0 0 0 0 0 0 0 5 126 725 2212 5294 5063 1966 762 208 23 0 0 0 0 0 0 0 0 0 0 0 
0 0 0 0 0 0 0 0 0 0 0 37 123 633 1030 6630 6079 890 753 206 3 0 0 0 0 0 0 0 0 0 0 0 
0 0 0 0 0 0 0 0 0 0 0 58 234 640 1170 5664 6227 1815 524 52 0 0 0 0 0 0 0 0 0 0 0 0 
0 0 0 0 0 0 0 0 0 0 0 16 218 577 1460 6357 5053 1816 748 137 2 0 0 0 0 0 0 0 0 0 0 0 
0 0 0 0 0 0 0 0 0 0 0 1 86 450 1751 6225 5603 1412 782 74 0 0 0 0 0 0 0 0 0 0 0 0 
0 0 0 0 0 0 0 0 0 0 0 0 0 4 49 8037 8237 53 4 0 0 0 0 0 0 0 0 0 0 0 0 0 
0 0 0 0 0 0 0 0 0 0 0 19 404 902 1241 5389 5522 1871 900 131 5 0 0 0 0 0 0 0 0 0 0 0 
0 0 0 0 0 0 0 0 0 0 0 3 249 792 1518 5434 5685 1836 768 95 4 0 0 0 0 0 0 0 0 0 0 0 
0 0 0 0 0 0 0 0 0 0 0 2 266 659 1750 5250 5671 2073 645 68 0 0 0 0 0 0 0 0 0 0 0 0 
0 0 0 0 0 0 0 0 0 0 0 1 194 784 2011 5143 5221 2100 777 144 9 0 0 0 0 0 0 0 0 0 0 0 
0 0 0 0 0 0 0 0 0 0 0 23 546 1022 2503 3568 4236 3277 1153 56 0 0 0 0 0 0 0 0 0 0 0 0 
0 0 0 0 0 0 0 0 0 0 0 0 82 812 2628 4778 4781 2201 901 194 7 0 0 0 0 0 0 0 0 0 0 0 
0 0 0 0 0 0 0 0 0 0 0 24 433 492 1534 5163 5913 2318 483 23 1 0 0 0 0 0 0 0 0 0 0 0 
0 0 0 0 0 0 0 0 0 0 0 6 254 1244 1740 4588 5033 2400 1035 84 0 0 0 0 0 0 0 0 0 0 0 0 
0 0 0 0 0 0 0 0 0 0 0 0 34 925 2957 4894 4052 1870 1285 365 2 0 0 0 0 0 0 0 0 0 0 0 
0 0 0 0 0 0 0 0 0 0 0 24 137 904 1949 5561 4707 1731 1193 178 0 0 0 0 0 0 0 0 0 0 0 0 
0 0 0 0 0 0 0 0 0 0 0 15 235 658 1467 5776 5759 1543 844 87 0 0 0 0 0 0 0 0 0 0 0 0 
0 0 0 0 0 0 0 0 0 0 0 6 129 686 2007 5702 4926 1841 915 168 4 0 0 0 0 0 0 0 0 0 0 0 
0 0 0 0 0 0 0 0 0 0 0 38 171 578 1215 6170 6057 1397 641 117 0 0 0 0 0 0 0 0 0 0 0 0 
0 0 0 0 0 0 0 0 0 0 0 4 286 837 1365 5308 5839 1967 757 21 0 0 0 0 0 0 0 0 0 0 0 0 
0 0 0 0 0 0 0 0 0 0 2 41 131 488 1150 6367 6120 1585 405 95 0 0 0 0 0 0 0 0 0 0 0 0 
0 0 0 0 0 0 0 0 0 0 0 5 184 613 1564 6011 5421 1661 847 78 0 0 0 0 0 0 0 0 0 0 0 0 
0 0 0 0 0 0 0 0 0 0 0 0 96 825 1731 5573 5556 1582 917 104 0 0 0 0 0 0 0 0 0 0 0 0 
0 0 0 0 0 0 0 0 0 0 0 0 0 5 74 8079 8159 64 3 0 0 0 0 0 0 0 0 0 0 0 0 0 
0 0 0 0 0 0 0 0 0 0 0 0 3 51 475 7706 7587 505 53 3 1 0 0 0 0 0 0 0 0 0 0 0 
0 0 0 0 0 0 0 0 0 0 0 0 221 1023 2154 4496 4759 2932 742 54 3 0 0 0 0 0 0 0 0 0 0 0 
0 0 0 0 0 0 0 0 0 0 0 19 313 758 1554 5159 5649 2253 595 84 0 0 0 0 0 0 0 0 0 0 0 0 
0 0 0 0 0 0 0 0 0 0 0 0 131 1404 1741 4742 4980 2137 1124 125 0 0 0 0 0 0 0 0 0 0 0 0 
0 0 0 0 0 0 0 0 0 0 0 0 62 457 1426 6380 6064 1452 489 54 0 0 0 0 0 0 0 0 0 0 0 0 
0 0 0 0 0 0 0 0 0 0 1 20 291 1284 2056 4376 4703 2062 1402 188 1 0 0 0 0 0 0 0 0 0 0 0 
0 0 0 0 0 0 0 0 0 0 0 7 51 739 1644 5321 6205 1946 432 34 5 0 0 0 0 0 0 0 0 0 0 0 
0 0 0 0 0 0 0 0 0 0 0 19 134 723 1848 5618 5424 1517 980 121 0 0 0 0 0 0 0 0 0 0 0 0 
0 0 0 0 0 0 0 0 0 0 0 20 127 821 1632 5827 5288 1502 994 173 0 0 0 0 0 0 0 0 0 0 0 0 
0 0 0 0 0 0 0 0 0 0 0 0 4 56 494 7720 7487 549 68 5 1 0 0 0 0 0 0 0 0 0 0 0 
0 0 0 0 0 0 0 0 0 0 0 70 325 1002 2129 4685 4560 2080 1376 154 3 0 0 0 0 0 0 0 0 0 0 0 
0 0 0 0 0 0 0 0 0 0 0 0 272 674 1533 5437 5869 1843 734 22 0 0 0 0 0 0 0 0 0 0 0 0 
0 0 0 0 0 0 0 0 0 0 0 0 57 148 1434 6745 6140 1590 263 7 0 0 0 0 0 0 0 0 0 0 0 0 
0 0 0 0 0 0 0 0 0 0 0 18 37 266 1542 6649 5950 1414 415 93 0 0 0 0 0 0 0 0 0 0 0 0 
0 0 0 0 0 0 0 0 0 0 0 4 131 1011 2629 4918 3869 2233 1488 101 0 0 0 0 0 0 0 0 0 0 0 0 
0 0 0 0 0 0 0 0 0 0 0 0 144 831 1798 5840 4725 1925 1032 89 0 0 0 0 0 0 0 0 0 0 0 0 
0 0 0 0 0 0 0 0 0 0 0 1 4 53 504 7744 7460 552 62 3 1 0 0 0 0 0 0 0 0 0 0 0 
0 0 0 0 0 0 0 0 0 0 1 77 379 970 1525 4625 5337 2607 774 88 1 0 0 0 0 0 0 0 0 0 0 0 
0 0 0 0 0 0 0 0 0 0 0 0 117 672 1574 5775 5990 1500 642 114 0 0 0 0 0 0 0 0 0 0 0 0 
0 0 0 0 0 0 0 0 0 0 0 17 165 741 1634 5704 5320 1884 845 74 0 0 0 0 0 0 0 0 0 0 0 0 
0 0 0 0 0 0 0 0 0 0 0 15 201 615 1663 5654 5409 2259 507 54 7 0 0 0 0 0 0 0 0 0 0 0 
0 0 0 0 0 0 0 0 0 0 2 23 109 544 2070 5831 4968 1803 876 158 0 0 0 0 0 0 0 0 0 0 0 0 
0 0 0 0 0 0 0 0 0 0 13 77 146 915 2333 4719 4634 2264 1113 131 36 3 0 0 0 0 0 0 0 0 0 0 
0 0 0 0 0 0 0 0 0 0 2 19 82 585 1673 5955 5588 1676 781 23 0 0 0 0 0 0 0 0 0 0 0 0 
0 0 0 0 0 0 0 0 0 0 0 0 1 14 168 8057 7959 177 8 0 0 0 0 0 0 0 0 0 0 0 0 0 
0 0 0 0 0 0 0 0 0 0 0 0 1 18 176 7971 8036 168 12 2 0 0 0 0 0 0 0 0 0 0 0 0 
0 0 0 0 0 0 0 0 0 0 0 0 412 940 1535 4789 5502 2404 764 38 0 0 0 0 0 0 0 0 0 0 0 0 
0 0 0 0 0 0 0 0 0 0 0 0 86 791 2511 5185 4468 2018 1181 144 0 0 0 0 0 0 0 0 0 0 0 0 
0 0 0 0 0 0 0 0 0 0 0 0 131 923 1837 5016 5247 2553 633 44 0 0 0 0 0 0 0 0 0 0 0 0 
0 0 0 0 0 0 0 0 0 0 0 8 250 761 1932 5152 5183 1982 972 142 2 0 0 0 0 0 0 0 0 0 0 0 
0 0 0 0 0 0 0 0 0 0 0 11 69 521 1944 6004 5302 1531 862 140 0 0 0 0 0 0 0 0 0 0 0 0 
0 0 0 0 0 0 0 0 0 0 0 2 167 747 1606 5509 5665 1956 684 48 0 0 0 0 0 0 0 0 0 0 0 0 
0 0 0 0 0 0 0 0 0 0 0 0 13 347 2174 5692 5883 1615 602 58 0 0 0 0 0 0 0 0 0 0 0 0 
0 0 0 0 0 0 0 0 0 0 0 0 0 6 60 8117 8148 48 5 0 0 0 0 0 0 0 0 0 0 0 0 0 
0 0 0 0 0 0 0 0 0 0 0 0 10 94 593 7578 7390 600 104 14 1 0 0 0 0 0 0 0 0 0 0 0 
0 0 0 0 0 0 0 0 0 0 0 3 82 607 2525 5399 4660 2095 819 192 2 0 0 0 0 0 0 0 0 0 0 0 
0 0 0 0 0 0 0 0 0 0 0 0 26 247 1040 6809 6874 1290 98 0 0 0 0 0 0 0 0 0 0 0 0 0 
0 0 0 0 0 0 0 0 0 13 24 54 165 564 1461 5811 5801 1826 537 101 25 2 0 0 0 0 0 0 0 0 0 0 
0 0 0 0 0 0 0 0 0 0 0 5 196 463 1352 6143 6185 1379 542 89 30 0 0 0 0 0 0 0 0 0 0 0 
0 0 0 0 0 0 0 0 0 0 3 6 46 137 420 7399 7791 357 136 76 13 0 0 0 0 0 0 0 0 0 0 0 
0 0 0 0 0 0 0 0 0 0 0 2 110 799 2738 4808 4369 2247 1071 239 1 0 0 0 0 0 0 0 0 0 0 0 
0 0 0 0 0 0 0 0 0 0 0 3 178 1326 3122 3696 3601 2738 1466 240 14 0 0 0 0 0 0 0 0 0 0 0 
0 0 0 0 0 0 0 0 0 0 0 5 184 915 2404 4834 4648 2085 1115 187 7 0 0 0 0 0 0 0 0 0 0 0 
0 0 0 0 0 0 0 0 0 0 0 0 16 274 1137 6693 6774 1294 190 6 0 0 0 0 0 0 0 0 0 0 0 0 
0 0 0 0 0 0 0 0 0 0 3 24 126 557 2081 5434 5420 2050 468 166 51 4 0 0 0 0 0 0 0 0 0 0 
0 0 0 0 0 0 0 0 0 0 0 0 118 475 1494 6371 5729 1489 593 102 13 0 0 0 0 0 0 0 0 0 0 0 
0 0 0 0 0 0 0 0 0 0 0 43 232 490 1492 5882 5730 1849 557 109 0 0 0 0 0 0 0 0 0 0 0 0 
0 0 0 0 0 0 0 0 0 0 0 0 11 343 1631 6323 6081 1523 425 43 4 0 0 0 0 0 0 0 0 0 0 0 
0 0 0 0 0 0 0 0 0 0 0 0 37 687 2366 5364 5213 1497 1052 165 3 0 0 0 0 0 0 0 0 0 0 0 
0 0 0 0 0 0 0 0 0 0 0 1 61 387 1610 6184 6191 1250 613 83 4 0 0 0 0 0 0 0 0 0 0 0 
0 0 0 0 0 0 0 0 0 0 0 0 229 1264 1621 4912 5000 2158 1057 143 0 0 0 0 0 0 0 0 0 0 0 0 
0 0 0 0 0 0 0 0 0 0 1 6 98 346 1206 6592 6404 1308 334 73 16 0 0 0 0 0 0 0 0 0 0 0 
0 0 0 0 0 0 0 0 0 0 0 16 125 686 1592 5782 5585 1822 734 41 1 0 0 0 0 0 0 0 0 0 0 0 
0 0 0 0 0 0 0 0 0 0 0 9 80 566 1914 5749 5572 1747 547 145 52 3 0 0 0 0 0 0 0 0 0 0 
0 0 0 0 0 0 0 0 0 0 0 18 190 1037 2038 4974 4955 1827 1078 267 0 0 0 0 0 0 0 0 0 0 0 0 
0 0 0 0 0 0 0 0 0 0 0 4 201 798 2055 4854 5396 2304 684 84 4 0 0 0 0 0 0 0 0 0 0 0 
0 0 0 0 0 0 0 0 0 0 0 23 182 719 1225 5844 6248 1303 657 180 3 0 0 0 0 0 0 0 0 0 0 0 
0 0 0 0 0 0 0 0 0 0 0 2 53 330 1597 5949 6677 1566 176 31 3 0 0 0 0 0 0 0 0 0 0 0 
0 0 0 0 0 0 0 0 0 0 0 3 122 793 1847 4882 5961 2212 548 16 0 0 0 0 0 0 0 0 0 0 0 0 
0 0 0 0 0 0 0 0 0 0 0 33 273 730 1838 5056 5470 2150 760 74 0 0 0 0 0 0 0 0 0 0 0 0 
0 0 0 0 0 0 0 0 0 0 0 0 0 6 67 8126 8110 70 4 1 0 0 0 0 0 0 0 0 0 0 0 0 
0 0 0 0 0 0 0 0 0 0 0 7 64 301 1280 6565 6480 1284 344 48 11 0 0 0 0 0 0 0 0 0 0 0 
0 0 0 0 0 0 0 0 0 0 15 58 314 948 2572 4472 3886 2659 1155 264 39 2 0 0 0 0 0 0 0 0 0 0 
0 0 0 0 0 0 0 0 0 0 0 0 107 664 1386 5811 6138 1800 459 19 0 0 0 0 0 0 0 0 0 0 0 0 
0 0 0 0 0 0 0 0 0 0 0 6 163 651 1127 6121 6268 1447 490 102 9 0 0 0 0 0 0 0 0 0 0 0 
0 0 0 0 0 0 0 0 0 0 2 42 277 922 1897 4927 5131 1918 1009 246 13 0 0 0 0 0 0 0 0 0 0 0 
0 0 0 0 0 0 0 0 0 0 1 41 231 796 1657 5420 5260 2062 789 125 2 0 0 0 0 0 0 0 0 0 0 0 
0 0 0 0 0 0 0 0 0 0 3 44 153 342 958 6601 6661 1079 454 89 0 0 0 0 0 0 0 0 0 0 0 0 
0 0 0 0 0 0 0 0 0 0 0 7 163 675 1643 5869 5440 1702 737 144 4 0 0 0 0 0 0 0 0 0 0 0 
0 0 0 0 0 0 0 0 0 0 0 14 110 418 1310 6294 6436 1271 428 99 4 0 0 0 0 0 0 0 0 0 0 0 
0 0 0 0 0 0 0 0 0 0 0 1 91 615 1528 6022 5913 1498 565 137 14 0 0 0 0 0 0 0 0 0 0 0 
0 0 0 0 0 0 0 0 0 0 0 5 91 549 1602 6070 5833 1629 473 124 7 1 0 0 0 0 0 0 0 0 0 0 
0 0 0 0 0 0 0 0 0 1 5 16 190 939 2103 4947 4907 2177 893 188 16 2 0 0 0 0 0 0 0 0 0 0 
0 0 0 0 0 0 0 0 0 0 0 11 94 476 1898 5710 5661 1929 494 101 9 1 0 0 0 0 0 0 0 0 0 0 
0 0 0 0 0 0 0 0 0 0 9 35 173 804 2300 4954 4824 2208 834 203 33 7 0 0 0 0 0 0 0 0 0 0 
0 0 0 0 0 0 0 0 0 0 1 55 225 777 2388 4608 4869 2462 767 202 25 5 0 0 0 0 0 0 0 0 0 0 
0 0 0 0 0 0 0 0 0 0 8 53 190 818 2493 4516 4781 2538 739 196 51 1 0 0 0 0 0 0 0 0 0 0 
0 0 0 0 0 0 0 0 0 0 7 27 143 671 2420 4944 5003 2195 790 161 21 2 0 0 0 0 0 0 0 0 0 0 
0 0 0 0 0 0 0 0 0 0 0 0 0 8 55 8161 8089 68 2 1 0 0 0 0 0 0 0 0 0 0 0 0 
0 0 0 0 0 0 0 0 0 0 12 26 90 1161 1733 4965 5322 1943 969 109 31 16 7 0 0 0 0 0 0 0 0 0 
0 0 0 0 0 0 0 0 0 0 0 16 169 525 1043 6204 6551 1322 470 78 6 0 0 0 0 0 0 0 0 0 0 0 
0 0 0 0 0 0 0 0 0 0 0 4 132 266 1183 6672 6606 1101 316 85 19 0 0 0 0 0 0 0 0 0 0 0 
0 0 0 0 0 0 0 0 0 0 0 10 131 374 891 6909 6674 788 458 142 7 0 0 0 0 0 0 0 0 0 0 0 
0 0 0 0 0 0 0 0 0 0 0 14 121 830 1556 5606 5766 1617 608 228 38 0 0 0 0 0 0 0 0 0 0 0 
0 0 0 0 0 0 0 0 0 0 0 11 61 272 2024 5802 5831 1998 347 35 3 0 0 0 0 0 0 0 0 0 0 0 
0 0 0 0 0 0 0 0 0 0 10 113 445 1183 2339 3563 4246 3129 1142 196 18 0 0 0 0 0 0 0 0 0 0 0 
0 0 0 0 0 0 0 0 0 0 0 10 192 681 1691 5526 5701 1728 716 138 1 0 0 0 0 0 0 0 0 0 0 0 
0 0 0 0 0 0 0 0 0 0 0 0 13 636 2452 5540 4536 2300 863 44 0 0 0 0 0 0 0 0 0 0 0 0 
0 0 0 0 0 0 0 0 0 0 0 2 132 723 2456 5406 4529 1783 981 371 1 0 0 0 0 0 0 0 0 0 0 0 
0 0 0 0 0 0 0 0 0 0 8 30 258 752 1838 5396 5230 1614 1106 150 2 0 0 0 0 0 0 0 0 0 0 0 
0 0 0 0 0 0 0 0 0 0 0 17 179 933 2371 4691 4674 2372 973 164 10 0 0 0 0 0 0 0 0 0 0 0 
0 0 0 0 0 0 0 0 0 0 4 19 177 877 2548 4488 4677 2612 792 163 27 0 0 0 0 0 0 0 0 0 0 0 
0 0 0 0 0 0 0 0 0 3 13 87 330 1199 2219 4264 4366 2430 1056 312 93 12 0 0 0 0 0 0 0 0 0 0 
0 0 0 0 0 0 0 0 0 0 0 1 32 478 2087 5695 5471 2027 508 78 7 0 0 0 0 0 0 0 0 0 0 0 
0 0 0 0 0 0 0 0 0 0 22 126 487 1334 2631 3737 3625 2308 1351 600 133 30 0 0 0 0 0 0 0 0 0 0 
0 0 0 0 0 0 0 0 0 0 0 0 15 411 2635 5035 5300 2582 403 3 0 0 0 0 0 0 0 0 0 0 0 0 
0 0 0 0 0 0 0 0 0 0 0 3 109 417 1880 6166 5145 2087 473 101 3 0 0 0 0 0 0 0 0 0 0 0 
0 0 0 0 0 0 0 0 0 0 0 5 87 565 2048 5966 5225 1466 712 292 18 0 0 0 0 0 0 0 0 0 0 0 
0 0 0 0 0 0 0 0 0 0 0 0 151 622 1441 6007 5915 1496 631 117 4 0 0 0 0 0 0 0 0 0 0 0 
0 0 0 0 0 0 0 0 0 0 0 0 72 249 1429 6528 6443 1260 336 67 0 0 0 0 0 0 0 0 0 0 0 0 
0 0 0 0 0 0 0 0 0 0 0 8 169 1285 2809 3923 4042 2725 1074 329 20 0 0 0 0 0 0 0 0 0 0 0 
0 0 0 0 0 0 0 0 0 0 6 47 263 687 1535 5768 5543 1478 693 252 100 12 0 0 0 0 0 0 0 0 0 0 
0 0 0 0 0 0 0 0 0 0 0 11 76 392 773 6902 7028 708 317 171 6 0 0 0 0 0 0 0 0 0 0 0 
0 0 0 0 0 0 0 0 0 0 0 3 33 218 811 7224 7030 825 193 38 9 0 0 0 0 0 0 0 0 0 0 0 
0 0 0 0 0 0 0 0 0 0 6 47 284 903 2406 4406 4734 2408 933 215 40 2 0 0 0 0 0 0 0 0 0 0 
0 0 0 0 0 0 0 0 0 0 6 43 254 1157 2709 4054 3956 2719 1157 290 36 3 0 0 0 0 0 0 0 0 0 0 
0 0 0 0 0 0 0 0 0 2 21 113 490 1373 2484 3638 3657 2611 1384 503 105 3 0 0 0 0 0 0 0 0 0 0 
0 0 0 0 0 0 0 0 0 0 2 43 308 998 2400 4413 4401 2512 993 263 50 1 0 0 0 0 0 0 0 0 0 0 

