txt0000000000000020 0 0
(null) 0  (null) 0  (null) 0  (null) 0  (null) 0  (null) 0  (null) 0  (null) 0  (null) 0  (null) 0  (null) 0  (null) 0  (null) 0  (null) 0  (null) 0  (null) 0  (null) 0  (null) 0  (null) 0  (null) 0  
txt0000000000000021 0 0
(null) 0  (null) 0  (null) 0  (null) 0  (null) 0  (null) 0  (null) 0  (null) 0  (null) 0  (null) 0  (null) 0  (null) 0  (null) 0  (null) 0  (null) 0  (null) 0  (null) 0  (null) 0  (null) 0  (null) 0  
txt0000000000000022 0 0
(null) 0  (null) 0  (null) 0  (null) 0  (null) 0  (null) 0  (null) 0  (null) 0  (null) 0  (null) 0  (null) 0  (null) 0  (null) 0  (null) 0  (null) 0  (null) 0  (null) 0  (null) 0  (null) 0  (null) 0  
txt0000000000000023 0 0
(null) 0  (null) 0  (null) 0  (null) 0  (null) 0  (null) 0  (null) 0  (null) 0  (null) 0  (null) 0  (null) 0  (null) 0  (null) 0  (null) 0  (null) 0  (null) 0  (null) 0  (null) 0  (null) 0  (null) 0  
txt0000000000000024 0 0
(null) 0  (null) 0  (null) 0  (null) 0  (null) 0  (null) 0  (null) 0  (null) 0  (null) 0  (null) 0  (null) 0  (null) 0  (null) 0  (null) 0  (null) 0  (null) 0  (null) 0  (null) 0  (null) 0  (null) 0  
txt0000000000000025 0 0
(null) 0  (null) 0  (null) 0  (null) 0  (null) 0  (null) 0  (null) 0  (null) 0  (null) 0  (null) 0  (null) 0  (null) 0  (null) 0  (null) 0  (null) 0  (null) 0  (null) 0  (null) 0  (null) 0  (null) 0  
txt0000000000000026 0 0
(null) 0  (null) 0  (null) 0  (null) 0  (null) 0  (null) 0  (null) 0  (null) 0  (null) 0  (null) 0  (null) 0  (null) 0  (null) 0  (null) 0  (null) 0  (null) 0  (null) 0  (null) 0  (null) 0  (null) 0  
txt0000000000000027 0 0
(null) 0  (null) 0  (null) 0  (null) 0  (null) 0  (null) 0  (null) 0  (null) 0  (null) 0  (null) 0  (null) 0  (null) 0  (null) 0  (null) 0  (null) 0  (null) 0  (null) 0  (null) 0  (null) 0  (null) 0  
txt0000000000000028 0 0
(null) 0  (null) 0  (null) 0  (null) 0  (null) 0  (null) 0  (null) 0  (null) 0  (null) 0  (null) 0  (null) 0  (null) 0  (null) 0  (null) 0  (null) 0  (null) 0  (null) 0  (null) 0  (null) 0  (null) 0  
txt0000000000000029 0 0
(null) 0  (null) 0  (null) 0  (null) 0  (null) 0  (null) 0  (null) 0  (null) 0  (null) 0  (null) 0  (null) 0  (null) 0  (null) 0  (null) 0  (null) 0  (null) 0  (null) 0  (null) 0  (null) 0  (null) 0  
txt0000000000000030 0 0
(null) 0  (null) 0  (null) 0  (null) 0  (null) 0  (null) 0  (null) 0  (null) 0  (null) 0  (null) 0  (null) 0  (null) 0  (null) 0  (null) 0  (null) 0  (null) 0  (null) 0  (null) 0  (null) 0  (null) 0  
txt0000000000000031 0 0
(null) 0  (null) 0  (null) 0  (null) 0  (null) 0  (null) 0  (null) 0  (null) 0  (null) 0  (null) 0  (null) 0  (null) 0  (null) 0  (null) 0  (null) 0  (null) 0  (null) 0  (null) 0  (null) 0  (null) 0  
txt0000000000000032 0 0
(null) 0  (null) 0  (null) 0  (null) 0  (null) 0  (null) 0  (null) 0  (null) 0  (null) 0  (null) 0  (null) 0  (null) 0  (null) 0  (null) 0  (null) 0  (null) 0  (null) 0  (null) 0  (null) 0  (null) 0  
txt0000000000000033 827 277
athl 9  saut 5  euros 5  quipe 4  france 4  tait 4  rations 4  paris 3  taient 3  bien 3  comp 3  canation 3  ration 3  fran 3  lancer 3  bernard 3  amsalem 3  david 3  charl 2  venus 2  
txt0000000000000034 0 0
(null) 0  (null) 0  (null) 0  (null) 0  (null) 0  (null) 0  (null) 0  (null) 0  (null) 0  (null) 0  (null) 0  (null) 0  (null) 0  (null) 0  (null) 0  (null) 0  (null) 0  (null) 0  (null) 0  (null) 0  
txt0000000000000035 0 0
(null) 0  (null) 0  (null) 0  (null) 0  (null) 0  (null) 0  (null) 0  (null) 0  (null) 0  (null) 0  (null) 0  (null) 0  (null) 0  (null) 0  (null) 0  (null) 0  (null) 0  (null) 0  (null) 0  (null) 0  
txt0000000000000036 0 0
(null) 0  (null) 0  (null) 0  (null) 0  (null) 0  (null) 0  (null) 0  (null) 0  (null) 0  (null) 0  (null) 0  (null) 0  (null) 0  (null) 0  (null) 0  (null) 0  (null) 0  (null) 0  (null) 0  (null) 0  
txt0000000000000037 0 0
(null) 0  (null) 0  (null) 0  (null) 0  (null) 0  (null) 0  (null) 0  (null) 0  (null) 0  (null) 0  (null) 0  (null) 0  (null) 0  (null) 0  (null) 0  (null) 0  (null) 0  (null) 0  (null) 0  (null) 0  
txt0000000000000038 0 0
(null) 0  (null) 0  (null) 0  (null) 0  (null) 0  (null) 0  (null) 0  (null) 0  (null) 0  (null) 0  (null) 0  (null) 0  (null) 0  (null) 0  (null) 0  (null) 0  (null) 0  (null) 0  (null) 0  (null) 0  
txt0000000000000039 0 0
(null) 0  (null) 0  (null) 0  (null) 0  (null) 0  (null) 0  (null) 0  (null) 0  (null) 0  (null) 0  (null) 0  (null) 0  (null) 0  (null) 0  (null) 0  (null) 0  (null) 0  (null) 0  (null) 0  (null) 0  
txt0000000000000040 0 0
(null) 0  (null) 0  (null) 0  (null) 0  (null) 0  (null) 0  (null) 0  (null) 0  (null) 0  (null) 0  (null) 0  (null) 0  (null) 0  (null) 0  (null) 0  (null) 0  (null) 0  (null) 0  (null) 0  (null) 0  
txt0000000000000041 0 0
(null) 0  (null) 0  (null) 0  (null) 0  (null) 0  (null) 0  (null) 0  (null) 0  (null) 0  (null) 0  (null) 0  (null) 0  (null) 0  (null) 0  (null) 0  (null) 0  (null) 0  (null) 0  (null) 0  (null) 0  
txt0000000000000042 0 0
(null) 0  (null) 0  (null) 0  (null) 0  (null) 0  (null) 0  (null) 0  (null) 0  (null) 0  (null) 0  (null) 0  (null) 0  (null) 0  (null) 0  (null) 0  (null) 0  (null) 0  (null) 0  (null) 0  (null) 0  
txt0000000000000043 0 0
(null) 0  (null) 0  (null) 0  (null) 0  (null) 0  (null) 0  (null) 0  (null) 0  (null) 0  (null) 0  (null) 0  (null) 0  (null) 0  (null) 0  (null) 0  (null) 0  (null) 0  (null) 0  (null) 0  (null) 0  
txt0000000000000044 0 0
(null) 0  (null) 0  (null) 0  (null) 0  (null) 0  (null) 0  (null) 0  (null) 0  (null) 0  (null) 0  (null) 0  (null) 0  (null) 0  (null) 0  (null) 0  (null) 0  (null) 0  (null) 0  (null) 0  (null) 0  
txt0000000000000045 0 0
(null) 0  (null) 0  (null) 0  (null) 0  (null) 0  (null) 0  (null) 0  (null) 0  (null) 0  (null) 0  (null) 0  (null) 0  (null) 0  (null) 0  (null) 0  (null) 0  (null) 0  (null) 0  (null) 0  (null) 0  
txt0000000000000046 0 0
(null) 0  (null) 0  (null) 0  (null) 0  (null) 0  (null) 0  (null) 0  (null) 0  (null) 0  (null) 0  (null) 0  (null) 0  (null) 0  (null) 0  (null) 0  (null) 0  (null) 0  (null) 0  (null) 0  (null) 0  
txt0000000000000047 0 0
(null) 0  (null) 0  (null) 0  (null) 0  (null) 0  (null) 0  (null) 0  (null) 0  (null) 0  (null) 0  (null) 0  (null) 0  (null) 0  (null) 0  (null) 0  (null) 0  (null) 0  (null) 0  (null) 0  (null) 0  
txt0000000000000048 0 0
(null) 0  (null) 0  (null) 0  (null) 0  (null) 0  (null) 0  (null) 0  (null) 0  (null) 0  (null) 0  (null) 0  (null) 0  (null) 0  (null) 0  (null) 0  (null) 0  (null) 0  (null) 0  (null) 0  (null) 0  
txt0000000000000049 0 0
(null) 0  (null) 0  (null) 0  (null) 0  (null) 0  (null) 0  (null) 0  (null) 0  (null) 0  (null) 0  (null) 0  (null) 0  (null) 0  (null) 0  (null) 0  (null) 0  (null) 0  (null) 0  (null) 0  (null) 0  
txt0000000000000050 0 0
(null) 0  (null) 0  (null) 0  (null) 0  (null) 0  (null) 0  (null) 0  (null) 0  (null) 0  (null) 0  (null) 0  (null) 0  (null) 0  (null) 0  (null) 0  (null) 0  (null) 0  (null) 0  (null) 0  (null) 0  
txt0000000000000051 0 0
(null) 0  (null) 0  (null) 0  (null) 0  (null) 0  (null) 0  (null) 0  (null) 0  (null) 0  (null) 0  (null) 0  (null) 0  (null) 0  (null) 0  (null) 0  (null) 0  (null) 0  (null) 0  (null) 0  (null) 0  
txt0000000000000052 0 0
(null) 0  (null) 0  (null) 0  (null) 0  (null) 0  (null) 0  (null) 0  (null) 0  (null) 0  (null) 0  (null) 0  (null) 0  (null) 0  (null) 0  (null) 0  (null) 0  (null) 0  (null) 0  (null) 0  (null) 0  
txt0000000000000053 0 0
(null) 0  (null) 0  (null) 0  (null) 0  (null) 0  (null) 0  (null) 0  (null) 0  (null) 0  (null) 0  (null) 0  (null) 0  (null) 0  (null) 0  (null) 0  (null) 0  (null) 0  (null) 0  (null) 0  (null) 0  
txt0000000000000054 0 0
(null) 0  (null) 0  (null) 0  (null) 0  (null) 0  (null) 0  (null) 0  (null) 0  (null) 0  (null) 0  (null) 0  (null) 0  (null) 0  (null) 0  (null) 0  (null) 0  (null) 0  (null) 0  (null) 0  (null) 0  
txt0000000000000055 0 0
(null) 0  (null) 0  (null) 0  (null) 0  (null) 0  (null) 0  (null) 0  (null) 0  (null) 0  (null) 0  (null) 0  (null) 0  (null) 0  (null) 0  (null) 0  (null) 0  (null) 0  (null) 0  (null) 0  (null) 0  
txt0000000000000056 0 0
(null) 0  (null) 0  (null) 0  (null) 0  (null) 0  (null) 0  (null) 0  (null) 0  (null) 0  (null) 0  (null) 0  (null) 0  (null) 0  (null) 0  (null) 0  (null) 0  (null) 0  (null) 0  (null) 0  (null) 0  
txt0000000000000057 0 0
(null) 0  (null) 0  (null) 0  (null) 0  (null) 0  (null) 0  (null) 0  (null) 0  (null) 0  (null) 0  (null) 0  (null) 0  (null) 0  (null) 0  (null) 0  (null) 0  (null) 0  (null) 0  (null) 0  (null) 0  
txt0000000000000058 0 0
(null) 0  (null) 0  (null) 0  (null) 0  (null) 0  (null) 0  (null) 0  (null) 0  (null) 0  (null) 0  (null) 0  (null) 0  (null) 0  (null) 0  (null) 0  (null) 0  (null) 0  (null) 0  (null) 0  (null) 0  
txt0000000000000059 0 0
(null) 0  (null) 0  (null) 0  (null) 0  (null) 0  (null) 0  (null) 0  (null) 0  (null) 0  (null) 0  (null) 0  (null) 0  (null) 0  (null) 0  (null) 0  (null) 0  (null) 0  (null) 0  (null) 0  (null) 0  
txt0000000000000060 0 0
(null) 0  (null) 0  (null) 0  (null) 0  (null) 0  (null) 0  (null) 0  (null) 0  (null) 0  (null) 0  (null) 0  (null) 0  (null) 0  (null) 0  (null) 0  (null) 0  (null) 0  (null) 0  (null) 0  (null) 0  
txt0000000000000061 0 0
(null) 0  (null) 0  (null) 0  (null) 0  (null) 0  (null) 0  (null) 0  (null) 0  (null) 0  (null) 0  (null) 0  (null) 0  (null) 0  (null) 0  (null) 0  (null) 0  (null) 0  (null) 0  (null) 0  (null) 0  
txt0000000000000062 0 0
(null) 0  (null) 0  (null) 0  (null) 0  (null) 0  (null) 0  (null) 0  (null) 0  (null) 0  (null) 0  (null) 0  (null) 0  (null) 0  (null) 0  (null) 0  (null) 0  (null) 0  (null) 0  (null) 0  (null) 0  
txt0000000000000063 0 0
(null) 0  (null) 0  (null) 0  (null) 0  (null) 0  (null) 0  (null) 0  (null) 0  (null) 0  (null) 0  (null) 0  (null) 0  (null) 0  (null) 0  (null) 0  (null) 0  (null) 0  (null) 0  (null) 0  (null) 0  
txt0000000000000064 0 0
(null) 0  (null) 0  (null) 0  (null) 0  (null) 0  (null) 0  (null) 0  (null) 0  (null) 0  (null) 0  (null) 0  (null) 0  (null) 0  (null) 0  (null) 0  (null) 0  (null) 0  (null) 0  (null) 0  (null) 0  
txt0000000000000065 0 0
(null) 0  (null) 0  (null) 0  (null) 0  (null) 0  (null) 0  (null) 0  (null) 0  (null) 0  (null) 0  (null) 0  (null) 0  (null) 0  (null) 0  (null) 0  (null) 0  (null) 0  (null) 0  (null) 0  (null) 0  
txt0000000000000066 0 0
(null) 0  (null) 0  (null) 0  (null) 0  (null) 0  (null) 0  (null) 0  (null) 0  (null) 0  (null) 0  (null) 0  (null) 0  (null) 0  (null) 0  (null) 0  (null) 0  (null) 0  (null) 0  (null) 0  (null) 0  
txt0000000000000067 0 0
(null) 0  (null) 0  (null) 0  (null) 0  (null) 0  (null) 0  (null) 0  (null) 0  (null) 0  (null) 0  (null) 0  (null) 0  (null) 0  (null) 0  (null) 0  (null) 0  (null) 0  (null) 0  (null) 0  (null) 0  
txt0000000000000068 0 0
(null) 0  (null) 0  (null) 0  (null) 0  (null) 0  (null) 0  (null) 0  (null) 0  (null) 0  (null) 0  (null) 0  (null) 0  (null) 0  (null) 0  (null) 0  (null) 0  (null) 0  (null) 0  (null) 0  (null) 0  
txt0000000000000069 0 0
(null) 0  (null) 0  (null) 0  (null) 0  (null) 0  (null) 0  (null) 0  (null) 0  (null) 0  (null) 0  (null) 0  (null) 0  (null) 0  (null) 0  (null) 0  (null) 0  (null) 0  (null) 0  (null) 0  (null) 0  
txt0000000000000070 0 0
(null) 0  (null) 0  (null) 0  (null) 0  (null) 0  (null) 0  (null) 0  (null) 0  (null) 0  (null) 0  (null) 0  (null) 0  (null) 0  (null) 0  (null) 0  (null) 0  (null) 0  (null) 0  (null) 0  (null) 0  
txt0000000000000071 0 0
(null) 0  (null) 0  (null) 0  (null) 0  (null) 0  (null) 0  (null) 0  (null) 0  (null) 0  (null) 0  (null) 0  (null) 0  (null) 0  (null) 0  (null) 0  (null) 0  (null) 0  (null) 0  (null) 0  (null) 0  
txt0000000000000072 0 0
(null) 0  (null) 0  (null) 0  (null) 0  (null) 0  (null) 0  (null) 0  (null) 0  (null) 0  (null) 0  (null) 0  (null) 0  (null) 0  (null) 0  (null) 0  (null) 0  (null) 0  (null) 0  (null) 0  (null) 0  
txt0000000000000073 0 0
(null) 0  (null) 0  (null) 0  (null) 0  (null) 0  (null) 0  (null) 0  (null) 0  (null) 0  (null) 0  (null) 0  (null) 0  (null) 0  (null) 0  (null) 0  (null) 0  (null) 0  (null) 0  (null) 0  (null) 0  
txt0000000000000074 0 0
(null) 0  (null) 0  (null) 0  (null) 0  (null) 0  (null) 0  (null) 0  (null) 0  (null) 0  (null) 0  (null) 0  (null) 0  (null) 0  (null) 0  (null) 0  (null) 0  (null) 0  (null) 0  (null) 0  (null) 0  
txt0000000000000075 0 0
(null) 0  (null) 0  (null) 0  (null) 0  (null) 0  (null) 0  (null) 0  (null) 0  (null) 0  (null) 0  (null) 0  (null) 0  (null) 0  (null) 0  (null) 0  (null) 0  (null) 0  (null) 0  (null) 0  (null) 0  
txt0000000000000076 0 0
(null) 0  (null) 0  (null) 0  (null) 0  (null) 0  (null) 0  (null) 0  (null) 0  (null) 0  (null) 0  (null) 0  (null) 0  (null) 0  (null) 0  (null) 0  (null) 0  (null) 0  (null) 0  (null) 0  (null) 0  
txt0000000000000077 0 0
(null) 0  (null) 0  (null) 0  (null) 0  (null) 0  (null) 0  (null) 0  (null) 0  (null) 0  (null) 0  (null) 0  (null) 0  (null) 0  (null) 0  (null) 0  (null) 0  (null) 0  (null) 0  (null) 0  (null) 0  
txt0000000000000078 0 0
(null) 0  (null) 0  (null) 0  (null) 0  (null) 0  (null) 0  (null) 0  (null) 0  (null) 0  (null) 0  (null) 0  (null) 0  (null) 0  (null) 0  (null) 0  (null) 0  (null) 0  (null) 0  (null) 0  (null) 0  
txt0000000000000079 0 0
(null) 0  (null) 0  (null) 0  (null) 0  (null) 0  (null) 0  (null) 0  (null) 0  (null) 0  (null) 0  (null) 0  (null) 0  (null) 0  (null) 0  (null) 0  (null) 0  (null) 0  (null) 0  (null) 0  (null) 0  
txt0000000000000080 0 0
(null) 0  (null) 0  (null) 0  (null) 0  (null) 0  (null) 0  (null) 0  (null) 0  (null) 0  (null) 0  (null) 0  (null) 0  (null) 0  (null) 0  (null) 0  (null) 0  (null) 0  (null) 0  (null) 0  (null) 0  
txt0000000000000081 0 0
(null) 0  (null) 0  (null) 0  (null) 0  (null) 0  (null) 0  (null) 0  (null) 0  (null) 0  (null) 0  (null) 0  (null) 0  (null) 0  (null) 0  (null) 0  (null) 0  (null) 0  (null) 0  (null) 0  (null) 0  
txt0000000000000082 0 0
(null) 0  (null) 0  (null) 0  (null) 0  (null) 0  (null) 0  (null) 0  (null) 0  (null) 0  (null) 0  (null) 0  (null) 0  (null) 0  (null) 0  (null) 0  (null) 0  (null) 0  (null) 0  (null) 0  (null) 0  
txt0000000000000083 0 0
(null) 0  (null) 0  (null) 0  (null) 0  (null) 0  (null) 0  (null) 0  (null) 0  (null) 0  (null) 0  (null) 0  (null) 0  (null) 0  (null) 0  (null) 0  (null) 0  (null) 0  (null) 0  (null) 0  (null) 0  
txt0000000000000084 0 0
(null) 0  (null) 0  (null) 0  (null) 0  (null) 0  (null) 0  (null) 0  (null) 0  (null) 0  (null) 0  (null) 0  (null) 0  (null) 0  (null) 0  (null) 0  (null) 0  (null) 0  (null) 0  (null) 0  (null) 0  
txt0000000000000085 0 0
(null) 0  (null) 0  (null) 0  (null) 0  (null) 0  (null) 0  (null) 0  (null) 0  (null) 0  (null) 0  (null) 0  (null) 0  (null) 0  (null) 0  (null) 0  (null) 0  (null) 0  (null) 0  (null) 0  (null) 0  
txt0000000000000086 0 0
(null) 0  (null) 0  (null) 0  (null) 0  (null) 0  (null) 0  (null) 0  (null) 0  (null) 0  (null) 0  (null) 0  (null) 0  (null) 0  (null) 0  (null) 0  (null) 0  (null) 0  (null) 0  (null) 0  (null) 0  
txt0000000000000087 0 0
(null) 0  (null) 0  (null) 0  (null) 0  (null) 0  (null) 0  (null) 0  (null) 0  (null) 0  (null) 0  (null) 0  (null) 0  (null) 0  (null) 0  (null) 0  (null) 0  (null) 0  (null) 0  (null) 0  (null) 0  
txt0000000000000088 0 0
(null) 0  (null) 0  (null) 0  (null) 0  (null) 0  (null) 0  (null) 0  (null) 0  (null) 0  (null) 0  (null) 0  (null) 0  (null) 0  (null) 0  (null) 0  (null) 0  (null) 0  (null) 0  (null) 0  (null) 0  
txt0000000000000089 0 0
(null) 0  (null) 0  (null) 0  (null) 0  (null) 0  (null) 0  (null) 0  (null) 0  (null) 0  (null) 0  (null) 0  (null) 0  (null) 0  (null) 0  (null) 0  (null) 0  (null) 0  (null) 0  (null) 0  (null) 0  
txt0000000000000090 0 0
(null) 0  (null) 0  (null) 0  (null) 0  (null) 0  (null) 0  (null) 0  (null) 0  (null) 0  (null) 0  (null) 0  (null) 0  (null) 0  (null) 0  (null) 0  (null) 0  (null) 0  (null) 0  (null) 0  (null) 0  
txt0000000000000091 0 0
(null) 0  (null) 0  (null) 0  (null) 0  (null) 0  (null) 0  (null) 0  (null) 0  (null) 0  (null) 0  (null) 0  (null) 0  (null) 0  (null) 0  (null) 0  (null) 0  (null) 0  (null) 0  (null) 0  (null) 0  
txt0000000000000092 0 0
(null) 0  (null) 0  (null) 0  (null) 0  (null) 0  (null) 0  (null) 0  (null) 0  (null) 0  (null) 0  (null) 0  (null) 0  (null) 0  (null) 0  (null) 0  (null) 0  (null) 0  (null) 0  (null) 0  (null) 0  
txt0000000000000093 0 0
(null) 0  (null) 0  (null) 0  (null) 0  (null) 0  (null) 0  (null) 0  (null) 0  (null) 0  (null) 0  (null) 0  (null) 0  (null) 0  (null) 0  (null) 0  (null) 0  (null) 0  (null) 0  (null) 0  (null) 0  
txt0000000000000094 0 0
(null) 0  (null) 0  (null) 0  (null) 0  (null) 0  (null) 0  (null) 0  (null) 0  (null) 0  (null) 0  (null) 0  (null) 0  (null) 0  (null) 0  (null) 0  (null) 0  (null) 0  (null) 0  (null) 0  (null) 0  
txt0000000000000095 0 0
(null) 0  (null) 0  (null) 0  (null) 0  (null) 0  (null) 0  (null) 0  (null) 0  (null) 0  (null) 0  (null) 0  (null) 0  (null) 0  (null) 0  (null) 0  (null) 0  (null) 0  (null) 0  (null) 0  (null) 0  
txt0000000000000096 0 0
(null) 0  (null) 0  (null) 0  (null) 0  (null) 0  (null) 0  (null) 0  (null) 0  (null) 0  (null) 0  (null) 0  (null) 0  (null) 0  (null) 0  (null) 0  (null) 0  (null) 0  (null) 0  (null) 0  (null) 0  
txt0000000000000097 0 0
(null) 0  (null) 0  (null) 0  (null) 0  (null) 0  (null) 0  (null) 0  (null) 0  (null) 0  (null) 0  (null) 0  (null) 0  (null) 0  (null) 0  (null) 0  (null) 0  (null) 0  (null) 0  (null) 0  (null) 0  
txt0000000000000098 0 0
(null) 0  (null) 0  (null) 0  (null) 0  (null) 0  (null) 0  (null) 0  (null) 0  (null) 0  (null) 0  (null) 0  (null) 0  (null) 0  (null) 0  (null) 0  (null) 0  (null) 0  (null) 0  (null) 0  (null) 0  
txt0000000000000099 0 0
(null) 0  (null) 0  (null) 0  (null) 0  (null) 0  (null) 0  (null) 0  (null) 0  (null) 0  (null) 0  (null) 0  (null) 0  (null) 0  (null) 0  (null) 0  (null) 0  (null) 0  (null) 0  (null) 0  (null) 0  
txt0000000000000100 0 0
(null) 0  (null) 0  (null) 0  (null) 0  (null) 0  (null) 0  (null) 0  (null) 0  (null) 0  (null) 0  (null) 0  (null) 0  (null) 0  (null) 0  (null) 0  (null) 0  (null) 0  (null) 0  (null) 0  (null) 0  
txt0000000000000101 0 0
(null) 0  (null) 0  (null) 0  (null) 0  (null) 0  (null) 0  (null) 0  (null) 0  (null) 0  (null) 0  (null) 0  (null) 0  (null) 0  (null) 0  (null) 0  (null) 0  (null) 0  (null) 0  (null) 0  (null) 0  
txt0000000000000102 0 0
(null) 0  (null) 0  (null) 0  (null) 0  (null) 0  (null) 0  (null) 0  (null) 0  (null) 0  (null) 0  (null) 0  (null) 0  (null) 0  (null) 0  (null) 0  (null) 0  (null) 0  (null) 0  (null) 0  (null) 0  
txt0000000000000103 0 0
(null) 0  (null) 0  (null) 0  (null) 0  (null) 0  (null) 0  (null) 0  (null) 0  (null) 0  (null) 0  (null) 0  (null) 0  (null) 0  (null) 0  (null) 0  (null) 0  (null) 0  (null) 0  (null) 0  (null) 0  
txt0000000000000104 0 0
(null) 0  (null) 0  (null) 0  (null) 0  (null) 0  (null) 0  (null) 0  (null) 0  (null) 0  (null) 0  (null) 0  (null) 0  (null) 0  (null) 0  (null) 0  (null) 0  (null) 0  (null) 0  (null) 0  (null) 0  
txt0000000000000105 0 0
(null) 0  (null) 0  (null) 0  (null) 0  (null) 0  (null) 0  (null) 0  (null) 0  (null) 0  (null) 0  (null) 0  (null) 0  (null) 0  (null) 0  (null) 0  (null) 0  (null) 0  (null) 0  (null) 0  (null) 0  
txt0000000000000106 0 0
(null) 0  (null) 0  (null) 0  (null) 0  (null) 0  (null) 0  (null) 0  (null) 0  (null) 0  (null) 0  (null) 0  (null) 0  (null) 0  (null) 0  (null) 0  (null) 0  (null) 0  (null) 0  (null) 0  (null) 0  
txt0000000000000107 0 0
(null) 0  (null) 0  (null) 0  (null) 0  (null) 0  (null) 0  (null) 0  (null) 0  (null) 0  (null) 0  (null) 0  (null) 0  (null) 0  (null) 0  (null) 0  (null) 0  (null) 0  (null) 0  (null) 0  (null) 0  
txt0000000000000108 0 0
(null) 0  (null) 0  (null) 0  (null) 0  (null) 0  (null) 0  (null) 0  (null) 0  (null) 0  (null) 0  (null) 0  (null) 0  (null) 0  (null) 0  (null) 0  (null) 0  (null) 0  (null) 0  (null) 0  (null) 0  
txt0000000000000109 0 0
(null) 0  (null) 0  (null) 0  (null) 0  (null) 0  (null) 0  (null) 0  (null) 0  (null) 0  (null) 0  (null) 0  (null) 0  (null) 0  (null) 0  (null) 0  (null) 0  (null) 0  (null) 0  (null) 0  (null) 0  
txt0000000000000110 0 0
(null) 0  (null) 0  (null) 0  (null) 0  (null) 0  (null) 0  (null) 0  (null) 0  (null) 0  (null) 0  (null) 0  (null) 0  (null) 0  (null) 0  (null) 0  (null) 0  (null) 0  (null) 0  (null) 0  (null) 0  
txt0000000000000111 0 0
(null) 0  (null) 0  (null) 0  (null) 0  (null) 0  (null) 0  (null) 0  (null) 0  (null) 0  (null) 0  (null) 0  (null) 0  (null) 0  (null) 0  (null) 0  (null) 0  (null) 0  (null) 0  (null) 0  (null) 0  
txt0000000000000112 0 0
(null) 0  (null) 0  (null) 0  (null) 0  (null) 0  (null) 0  (null) 0  (null) 0  (null) 0  (null) 0  (null) 0  (null) 0  (null) 0  (null) 0  (null) 0  (null) 0  (null) 0  (null) 0  (null) 0  (null) 0  
txt0000000000000113 0 0
(null) 0  (null) 0  (null) 0  (null) 0  (null) 0  (null) 0  (null) 0  (null) 0  (null) 0  (null) 0  (null) 0  (null) 0  (null) 0  (null) 0  (null) 0  (null) 0  (null) 0  (null) 0  (null) 0  (null) 0  
txt0000000000000114 0 0
(null) 0  (null) 0  (null) 0  (null) 0  (null) 0  (null) 0  (null) 0  (null) 0  (null) 0  (null) 0  (null) 0  (null) 0  (null) 0  (null) 0  (null) 0  (null) 0  (null) 0  (null) 0  (null) 0  (null) 0  
txt0000000000000115 0 0
(null) 0  (null) 0  (null) 0  (null) 0  (null) 0  (null) 0  (null) 0  (null) 0  (null) 0  (null) 0  (null) 0  (null) 0  (null) 0  (null) 0  (null) 0  (null) 0  (null) 0  (null) 0  (null) 0  (null) 0  
txt0000000000000116 0 0
(null) 0  (null) 0  (null) 0  (null) 0  (null) 0  (null) 0  (null) 0  (null) 0  (null) 0  (null) 0  (null) 0  (null) 0  (null) 0  (null) 0  (null) 0  (null) 0  (null) 0  (null) 0  (null) 0  (null) 0  
txt0000000000000117 0 0
(null) 0  (null) 0  (null) 0  (null) 0  (null) 0  (null) 0  (null) 0  (null) 0  (null) 0  (null) 0  (null) 0  (null) 0  (null) 0  (null) 0  (null) 0  (null) 0  (null) 0  (null) 0  (null) 0  (null) 0  
txt0000000000000118 0 0
(null) 0  (null) 0  (null) 0  (null) 0  (null) 0  (null) 0  (null) 0  (null) 0  (null) 0  (null) 0  (null) 0  (null) 0  (null) 0  (null) 0  (null) 0  (null) 0  (null) 0  (null) 0  (null) 0  (null) 0  
txt0000000000000119 0 0
(null) 0  (null) 0  (null) 0  (null) 0  (null) 0  (null) 0  (null) 0  (null) 0  (null) 0  (null) 0  (null) 0  (null) 0  (null) 0  (null) 0  (null) 0  (null) 0  (null) 0  (null) 0  (null) 0  (null) 0  
txt0000000000000120 0 0
(null) 0  (null) 0  (null) 0  (null) 0  (null) 0  (null) 0  (null) 0  (null) 0  (null) 0  (null) 0  (null) 0  (null) 0  (null) 0  (null) 0  (null) 0  (null) 0  (null) 0  (null) 0  (null) 0  (null) 0  
txt0000000000000121 0 0
(null) 0  (null) 0  (null) 0  (null) 0  (null) 0  (null) 0  (null) 0  (null) 0  (null) 0  (null) 0  (null) 0  (null) 0  (null) 0  (null) 0  (null) 0  (null) 0  (null) 0  (null) 0  (null) 0  (null) 0  
txt0000000000000122 0 0
(null) 0  (null) 0  (null) 0  (null) 0  (null) 0  (null) 0  (null) 0  (null) 0  (null) 0  (null) 0  (null) 0  (null) 0  (null) 0  (null) 0  (null) 0  (null) 0  (null) 0  (null) 0  (null) 0  (null) 0  
txt0000000000000123 0 0
(null) 0  (null) 0  (null) 0  (null) 0  (null) 0  (null) 0  (null) 0  (null) 0  (null) 0  (null) 0  (null) 0  (null) 0  (null) 0  (null) 0  (null) 0  (null) 0  (null) 0  (null) 0  (null) 0  (null) 0  
txt0000000000000124 0 0
(null) 0  (null) 0  (null) 0  (null) 0  (null) 0  (null) 0  (null) 0  (null) 0  (null) 0  (null) 0  (null) 0  (null) 0  (null) 0  (null) 0  (null) 0  (null) 0  (null) 0  (null) 0  (null) 0  (null) 0  
txt0000000000000125 0 0
(null) 0  (null) 0  (null) 0  (null) 0  (null) 0  (null) 0  (null) 0  (null) 0  (null) 0  (null) 0  (null) 0  (null) 0  (null) 0  (null) 0  (null) 0  (null) 0  (null) 0  (null) 0  (null) 0  (null) 0  
txt0000000000000126 0 0
(null) 0  (null) 0  (null) 0  (null) 0  (null) 0  (null) 0  (null) 0  (null) 0  (null) 0  (null) 0  (null) 0  (null) 0  (null) 0  (null) 0  (null) 0  (null) 0  (null) 0  (null) 0  (null) 0  (null) 0  
txt0000000000000127 0 0
(null) 0  (null) 0  (null) 0  (null) 0  (null) 0  (null) 0  (null) 0  (null) 0  (null) 0  (null) 0  (null) 0  (null) 0  (null) 0  (null) 0  (null) 0  (null) 0  (null) 0  (null) 0  (null) 0  (null) 0  
txt0000000000000128 0 0
(null) 0  (null) 0  (null) 0  (null) 0  (null) 0  (null) 0  (null) 0  (null) 0  (null) 0  (null) 0  (null) 0  (null) 0  (null) 0  (null) 0  (null) 0  (null) 0  (null) 0  (null) 0  (null) 0  (null) 0  
txt0000000000000129 0 0
(null) 0  (null) 0  (null) 0  (null) 0  (null) 0  (null) 0  (null) 0  (null) 0  (null) 0  (null) 0  (null) 0  (null) 0  (null) 0  (null) 0  (null) 0  (null) 0  (null) 0  (null) 0  (null) 0  (null) 0  
txt0000000000000130 0 0
(null) 0  (null) 0  (null) 0  (null) 0  (null) 0  (null) 0  (null) 0  (null) 0  (null) 0  (null) 0  (null) 0  (null) 0  (null) 0  (null) 0  (null) 0  (null) 0  (null) 0  (null) 0  (null) 0  (null) 0  
txt0000000000000131 0 0
(null) 0  (null) 0  (null) 0  (null) 0  (null) 0  (null) 0  (null) 0  (null) 0  (null) 0  (null) 0  (null) 0  (null) 0  (null) 0  (null) 0  (null) 0  (null) 0  (null) 0  (null) 0  (null) 0  (null) 0  
txt0000000000000132 0 0
(null) 0  (null) 0  (null) 0  (null) 0  (null) 0  (null) 0  (null) 0  (null) 0  (null) 0  (null) 0  (null) 0  (null) 0  (null) 0  (null) 0  (null) 0  (null) 0  (null) 0  (null) 0  (null) 0  (null) 0  
txt0000000000000133 0 0
(null) 0  (null) 0  (null) 0  (null) 0  (null) 0  (null) 0  (null) 0  (null) 0  (null) 0  (null) 0  (null) 0  (null) 0  (null) 0  (null) 0  (null) 0  (null) 0  (null) 0  (null) 0  (null) 0  (null) 0  
txt0000000000000134 0 0
(null) 0  (null) 0  (null) 0  (null) 0  (null) 0  (null) 0  (null) 0  (null) 0  (null) 0  (null) 0  (null) 0  (null) 0  (null) 0  (null) 0  (null) 0  (null) 0  (null) 0  (null) 0  (null) 0  (null) 0  
txt0000000000000135 0 0
(null) 0  (null) 0  (null) 0  (null) 0  (null) 0  (null) 0  (null) 0  (null) 0  (null) 0  (null) 0  (null) 0  (null) 0  (null) 0  (null) 0  (null) 0  (null) 0  (null) 0  (null) 0  (null) 0  (null) 0  
txt0000000000000136 0 0
(null) 0  (null) 0  (null) 0  (null) 0  (null) 0  (null) 0  (null) 0  (null) 0  (null) 0  (null) 0  (null) 0  (null) 0  (null) 0  (null) 0  (null) 0  (null) 0  (null) 0  (null) 0  (null) 0  (null) 0  
txt0000000000000137 0 0
(null) 0  (null) 0  (null) 0  (null) 0  (null) 0  (null) 0  (null) 0  (null) 0  (null) 0  (null) 0  (null) 0  (null) 0  (null) 0  (null) 0  (null) 0  (null) 0  (null) 0  (null) 0  (null) 0  (null) 0  
txt0000000000000138 0 0
(null) 0  (null) 0  (null) 0  (null) 0  (null) 0  (null) 0  (null) 0  (null) 0  (null) 0  (null) 0  (null) 0  (null) 0  (null) 0  (null) 0  (null) 0  (null) 0  (null) 0  (null) 0  (null) 0  (null) 0  
txt0000000000000139 0 0
(null) 0  (null) 0  (null) 0  (null) 0  (null) 0  (null) 0  (null) 0  (null) 0  (null) 0  (null) 0  (null) 0  (null) 0  (null) 0  (null) 0  (null) 0  (null) 0  (null) 0  (null) 0  (null) 0  (null) 0  
txt0000000000000140 0 0
(null) 0  (null) 0  (null) 0  (null) 0  (null) 0  (null) 0  (null) 0  (null) 0  (null) 0  (null) 0  (null) 0  (null) 0  (null) 0  (null) 0  (null) 0  (null) 0  (null) 0  (null) 0  (null) 0  (null) 0  
txt0000000000000141 0 0
(null) 0  (null) 0  (null) 0  (null) 0  (null) 0  (null) 0  (null) 0  (null) 0  (null) 0  (null) 0  (null) 0  (null) 0  (null) 0  (null) 0  (null) 0  (null) 0  (null) 0  (null) 0  (null) 0  (null) 0  
txt0000000000000142 0 0
(null) 0  (null) 0  (null) 0  (null) 0  (null) 0  (null) 0  (null) 0  (null) 0  (null) 0  (null) 0  (null) 0  (null) 0  (null) 0  (null) 0  (null) 0  (null) 0  (null) 0  (null) 0  (null) 0  (null) 0  
txt0000000000000143 0 0
(null) 0  (null) 0  (null) 0  (null) 0  (null) 0  (null) 0  (null) 0  (null) 0  (null) 0  (null) 0  (null) 0  (null) 0  (null) 0  (null) 0  (null) 0  (null) 0  (null) 0  (null) 0  (null) 0  (null) 0  
txt0000000000000144 0 0
(null) 0  (null) 0  (null) 0  (null) 0  (null) 0  (null) 0  (null) 0  (null) 0  (null) 0  (null) 0  (null) 0  (null) 0  (null) 0  (null) 0  (null) 0  (null) 0  (null) 0  (null) 0  (null) 0  (null) 0  
txt0000000000000145 0 0
(null) 0  (null) 0  (null) 0  (null) 0  (null) 0  (null) 0  (null) 0  (null) 0  (null) 0  (null) 0  (null) 0  (null) 0  (null) 0  (null) 0  (null) 0  (null) 0  (null) 0  (null) 0  (null) 0  (null) 0  
txt0000000000000146 0 0
(null) 0  (null) 0  (null) 0  (null) 0  (null) 0  (null) 0  (null) 0  (null) 0  (null) 0  (null) 0  (null) 0  (null) 0  (null) 0  (null) 0  (null) 0  (null) 0  (null) 0  (null) 0  (null) 0  (null) 0  
txt0000000000000147 0 0
(null) 0  (null) 0  (null) 0  (null) 0  (null) 0  (null) 0  (null) 0  (null) 0  (null) 0  (null) 0  (null) 0  (null) 0  (null) 0  (null) 0  (null) 0  (null) 0  (null) 0  (null) 0  (null) 0  (null) 0  
txt0000000000000148 0 0
(null) 0  (null) 0  (null) 0  (null) 0  (null) 0  (null) 0  (null) 0  (null) 0  (null) 0  (null) 0  (null) 0  (null) 0  (null) 0  (null) 0  (null) 0  (null) 0  (null) 0  (null) 0  (null) 0  (null) 0  
txt0000000000000149 0 0
(null) 0  (null) 0  (null) 0  (null) 0  (null) 0  (null) 0  (null) 0  (null) 0  (null) 0  (null) 0  (null) 0  (null) 0  (null) 0  (null) 0  (null) 0  (null) 0  (null) 0  (null) 0  (null) 0  (null) 0  
txt0000000000000150 0 0
(null) 0  (null) 0  (null) 0  (null) 0  (null) 0  (null) 0  (null) 0  (null) 0  (null) 0  (null) 0  (null) 0  (null) 0  (null) 0  (null) 0  (null) 0  (null) 0  (null) 0  (null) 0  (null) 0  (null) 0  
txt0000000000000151 0 0
(null) 0  (null) 0  (null) 0  (null) 0  (null) 0  (null) 0  (null) 0  (null) 0  (null) 0  (null) 0  (null) 0  (null) 0  (null) 0  (null) 0  (null) 0  (null) 0  (null) 0  (null) 0  (null) 0  (null) 0  
txt0000000000000152 0 0
(null) 0  (null) 0  (null) 0  (null) 0  (null) 0  (null) 0  (null) 0  (null) 0  (null) 0  (null) 0  (null) 0  (null) 0  (null) 0  (null) 0  (null) 0  (null) 0  (null) 0  (null) 0  (null) 0  (null) 0  
txt0000000000000153 0 0
(null) 0  (null) 0  (null) 0  (null) 0  (null) 0  (null) 0  (null) 0  (null) 0  (null) 0  (null) 0  (null) 0  (null) 0  (null) 0  (null) 0  (null) 0  (null) 0  (null) 0  (null) 0  (null) 0  (null) 0  
txt0000000000000154 0 0
(null) 0  (null) 0  (null) 0  (null) 0  (null) 0  (null) 0  (null) 0  (null) 0  (null) 0  (null) 0  (null) 0  (null) 0  (null) 0  (null) 0  (null) 0  (null) 0  (null) 0  (null) 0  (null) 0  (null) 0  
txt0000000000000155 0 0
(null) 0  (null) 0  (null) 0  (null) 0  (null) 0  (null) 0  (null) 0  (null) 0  (null) 0  (null) 0  (null) 0  (null) 0  (null) 0  (null) 0  (null) 0  (null) 0  (null) 0  (null) 0  (null) 0  (null) 0  
txt0000000000000156 0 0
(null) 0  (null) 0  (null) 0  (null) 0  (null) 0  (null) 0  (null) 0  (null) 0  (null) 0  (null) 0  (null) 0  (null) 0  (null) 0  (null) 0  (null) 0  (null) 0  (null) 0  (null) 0  (null) 0  (null) 0  
txt0000000000000157 0 0
(null) 0  (null) 0  (null) 0  (null) 0  (null) 0  (null) 0  (null) 0  (null) 0  (null) 0  (null) 0  (null) 0  (null) 0  (null) 0  (null) 0  (null) 0  (null) 0  (null) 0  (null) 0  (null) 0  (null) 0  
txt0000000000000158 0 0
(null) 0  (null) 0  (null) 0  (null) 0  (null) 0  (null) 0  (null) 0  (null) 0  (null) 0  (null) 0  (null) 0  (null) 0  (null) 0  (null) 0  (null) 0  (null) 0  (null) 0  (null) 0  (null) 0  (null) 0  
txt0000000000000159 0 0
(null) 0  (null) 0  (null) 0  (null) 0  (null) 0  (null) 0  (null) 0  (null) 0  (null) 0  (null) 0  (null) 0  (null) 0  (null) 0  (null) 0  (null) 0  (null) 0  (null) 0  (null) 0  (null) 0  (null) 0  
txt0000000000000160 0 0
(null) 0  (null) 0  (null) 0  (null) 0  (null) 0  (null) 0  (null) 0  (null) 0  (null) 0  (null) 0  (null) 0  (null) 0  (null) 0  (null) 0  (null) 0  (null) 0  (null) 0  (null) 0  (null) 0  (null) 0  
txt0000000000000161 0 0
(null) 0  (null) 0  (null) 0  (null) 0  (null) 0  (null) 0  (null) 0  (null) 0  (null) 0  (null) 0  (null) 0  (null) 0  (null) 0  (null) 0  (null) 0  (null) 0  (null) 0  (null) 0  (null) 0  (null) 0  
txt0000000000000162 0 0
(null) 0  (null) 0  (null) 0  (null) 0  (null) 0  (null) 0  (null) 0  (null) 0  (null) 0  (null) 0  (null) 0  (null) 0  (null) 0  (null) 0  (null) 0  (null) 0  (null) 0  (null) 0  (null) 0  (null) 0  
txt0000000000000163 0 0
(null) 0  (null) 0  (null) 0  (null) 0  (null) 0  (null) 0  (null) 0  (null) 0  (null) 0  (null) 0  (null) 0  (null) 0  (null) 0  (null) 0  (null) 0  (null) 0  (null) 0  (null) 0  (null) 0  (null) 0  
txt0000000000000164 0 0
(null) 0  (null) 0  (null) 0  (null) 0  (null) 0  (null) 0  (null) 0  (null) 0  (null) 0  (null) 0  (null) 0  (null) 0  (null) 0  (null) 0  (null) 0  (null) 0  (null) 0  (null) 0  (null) 0  (null) 0  
txt0000000000000165 0 0
(null) 0  (null) 0  (null) 0  (null) 0  (null) 0  (null) 0  (null) 0  (null) 0  (null) 0  (null) 0  (null) 0  (null) 0  (null) 0  (null) 0  (null) 0  (null) 0  (null) 0  (null) 0  (null) 0  (null) 0  
txt0000000000000166 0 0
(null) 0  (null) 0  (null) 0  (null) 0  (null) 0  (null) 0  (null) 0  (null) 0  (null) 0  (null) 0  (null) 0  (null) 0  (null) 0  (null) 0  (null) 0  (null) 0  (null) 0  (null) 0  (null) 0  (null) 0  
txt0000000000000167 0 0
(null) 0  (null) 0  (null) 0  (null) 0  (null) 0  (null) 0  (null) 0  (null) 0  (null) 0  (null) 0  (null) 0  (null) 0  (null) 0  (null) 0  (null) 0  (null) 0  (null) 0  (null) 0  (null) 0  (null) 0  
txt0000000000000168 0 0
(null) 0  (null) 0  (null) 0  (null) 0  (null) 0  (null) 0  (null) 0  (null) 0  (null) 0  (null) 0  (null) 0  (null) 0  (null) 0  (null) 0  (null) 0  (null) 0  (null) 0  (null) 0  (null) 0  (null) 0  
txt0000000000000169 0 0
(null) 0  (null) 0  (null) 0  (null) 0  (null) 0  (null) 0  (null) 0  (null) 0  (null) 0  (null) 0  (null) 0  (null) 0  (null) 0  (null) 0  (null) 0  (null) 0  (null) 0  (null) 0  (null) 0  (null) 0  
txt0000000000000170 0 0
(null) 0  (null) 0  (null) 0  (null) 0  (null) 0  (null) 0  (null) 0  (null) 0  (null) 0  (null) 0  (null) 0  (null) 0  (null) 0  (null) 0  (null) 0  (null) 0  (null) 0  (null) 0  (null) 0  (null) 0  
txt0000000000000171 0 0
(null) 0  (null) 0  (null) 0  (null) 0  (null) 0  (null) 0  (null) 0  (null) 0  (null) 0  (null) 0  (null) 0  (null) 0  (null) 0  (null) 0  (null) 0  (null) 0  (null) 0  (null) 0  (null) 0  (null) 0  
txt0000000000000172 0 0
(null) 0  (null) 0  (null) 0  (null) 0  (null) 0  (null) 0  (null) 0  (null) 0  (null) 0  (null) 0  (null) 0  (null) 0  (null) 0  (null) 0  (null) 0  (null) 0  (null) 0  (null) 0  (null) 0  (null) 0  
txt0000000000000173 0 0
(null) 0  (null) 0  (null) 0  (null) 0  (null) 0  (null) 0  (null) 0  (null) 0  (null) 0  (null) 0  (null) 0  (null) 0  (null) 0  (null) 0  (null) 0  (null) 0  (null) 0  (null) 0  (null) 0  (null) 0  
txt0000000000000174 0 0
(null) 0  (null) 0  (null) 0  (null) 0  (null) 0  (null) 0  (null) 0  (null) 0  (null) 0  (null) 0  (null) 0  (null) 0  (null) 0  (null) 0  (null) 0  (null) 0  (null) 0  (null) 0  (null) 0  (null) 0  
txt0000000000000175 0 0
(null) 0  (null) 0  (null) 0  (null) 0  (null) 0  (null) 0  (null) 0  (null) 0  (null) 0  (null) 0  (null) 0  (null) 0  (null) 0  (null) 0  (null) 0  (null) 0  (null) 0  (null) 0  (null) 0  (null) 0  
txt0000000000000176 0 0
(null) 0  (null) 0  (null) 0  (null) 0  (null) 0  (null) 0  (null) 0  (null) 0  (null) 0  (null) 0  (null) 0  (null) 0  (null) 0  (null) 0  (null) 0  (null) 0  (null) 0  (null) 0  (null) 0  (null) 0  
txt0000000000000177 0 0
(null) 0  (null) 0  (null) 0  (null) 0  (null) 0  (null) 0  (null) 0  (null) 0  (null) 0  (null) 0  (null) 0  (null) 0  (null) 0  (null) 0  (null) 0  (null) 0  (null) 0  (null) 0  (null) 0  (null) 0  
txt0000000000000178 0 0
(null) 0  (null) 0  (null) 0  (null) 0  (null) 0  (null) 0  (null) 0  (null) 0  (null) 0  (null) 0  (null) 0  (null) 0  (null) 0  (null) 0  (null) 0  (null) 0  (null) 0  (null) 0  (null) 0  (null) 0  
txt0000000000000179 0 0
(null) 0  (null) 0  (null) 0  (null) 0  (null) 0  (null) 0  (null) 0  (null) 0  (null) 0  (null) 0  (null) 0  (null) 0  (null) 0  (null) 0  (null) 0  (null) 0  (null) 0  (null) 0  (null) 0  (null) 0  
txt0000000000000180 0 0
(null) 0  (null) 0  (null) 0  (null) 0  (null) 0  (null) 0  (null) 0  (null) 0  (null) 0  (null) 0  (null) 0  (null) 0  (null) 0  (null) 0  (null) 0  (null) 0  (null) 0  (null) 0  (null) 0  (null) 0  
txt0000000000000181 0 0
(null) 0  (null) 0  (null) 0  (null) 0  (null) 0  (null) 0  (null) 0  (null) 0  (null) 0  (null) 0  (null) 0  (null) 0  (null) 0  (null) 0  (null) 0  (null) 0  (null) 0  (null) 0  (null) 0  (null) 0  
txt0000000000000182 0 0
(null) 0  (null) 0  (null) 0  (null) 0  (null) 0  (null) 0  (null) 0  (null) 0  (null) 0  (null) 0  (null) 0  (null) 0  (null) 0  (null) 0  (null) 0  (null) 0  (null) 0  (null) 0  (null) 0  (null) 0  
txt0000000000000183 0 0
(null) 0  (null) 0  (null) 0  (null) 0  (null) 0  (null) 0  (null) 0  (null) 0  (null) 0  (null) 0  (null) 0  (null) 0  (null) 0  (null) 0  (null) 0  (null) 0  (null) 0  (null) 0  (null) 0  (null) 0  
txt0000000000000184 0 0
(null) 0  (null) 0  (null) 0  (null) 0  (null) 0  (null) 0  (null) 0  (null) 0  (null) 0  (null) 0  (null) 0  (null) 0  (null) 0  (null) 0  (null) 0  (null) 0  (null) 0  (null) 0  (null) 0  (null) 0  
txt0000000000000185 0 0
(null) 0  (null) 0  (null) 0  (null) 0  (null) 0  (null) 0  (null) 0  (null) 0  (null) 0  (null) 0  (null) 0  (null) 0  (null) 0  (null) 0  (null) 0  (null) 0  (null) 0  (null) 0  (null) 0  (null) 0  
txt0000000000000186 0 0
(null) 0  (null) 0  (null) 0  (null) 0  (null) 0  (null) 0  (null) 0  (null) 0  (null) 0  (null) 0  (null) 0  (null) 0  (null) 0  (null) 0  (null) 0  (null) 0  (null) 0  (null) 0  (null) 0  (null) 0  
txt0000000000000187 0 0
(null) 0  (null) 0  (null) 0  (null) 0  (null) 0  (null) 0  (null) 0  (null) 0  (null) 0  (null) 0  (null) 0  (null) 0  (null) 0  (null) 0  (null) 0  (null) 0  (null) 0  (null) 0  (null) 0  (null) 0  
txt0000000000000188 541 215
cellules 21  souches 9  musculaires 7  adultes 6  chercheurs 5  institut 4  souris 4  pasteur 3  isoler 3  régénération 3  travaux 3  être 3  équipe 2  capacité 2  vingt 2  mille 2  greffées 2  forme 2  myopathie 2  fibres 2  
txt0000000000000189 469 203
parasite 3  nématomorphes 3  frédéric 3  thomas 3  comportement 3  protéines 3  pousser 2  dévoré 2  suicide 2  sauterelle 2  stade 2  activité 2  biologique 2  synthétisées 2  insecte 2  boulimie 2  chercheur 2  parasites 2  recule 1  devant 1  
txt0000000000000190 468 175
victoire 5  abidjan 4  pays 4  ivoire 3  football 3  équipe 3  rêve 3  jours 2  guerre 2  entre 2  rumeurs 2  sport 2  nationale 2  lions 2  indomptables 2  envolée 2  avant 2  match 2  gagne 2  rencontre 2  
txt0000000000000191 445 165
étude 4  question 3  expressions 3  femmes 3  hommes 3  beau 3  mots 2  dernières 2  années 2  pessimisme 2  utilisés 2  réponses 2  thèmes 2  très 2  après 2  difficultés 2  changement 2  positif 2  optimisme 2  interrogées 2  
txt0000000000000192 721 271
bateau 5  jean 5  christophe 5  monde 4  français 4  bette 4  parcours 4  deux 3  quatre 3  poids 3  titre 3  olympique 3  sydney 3  rameurs 3  avais 3  course 3  irlandais 3  barreur 2  tricolore 2  embarcation 2  
txt0000000000000193 1077 358
circoncision 10  hommes 9  circoncis 9  étude 7  infection 6  essai 5  résultats 5  avant 5  afrique 5  sida 4  protection 4  anrs 4  risque 4  bertran 4  auvert 4  mois 4  groupe 4  virus 3  partielle 3  contre 3  
txt0000000000000194 840 301
mètres 8  monde 6  guillaume 5  néry 5  record 5  fois 3  bien 3  français 3  apnée 3  aida 3  très 3  grand 3  équipe 3  complètement 3  flashs 2  intenses 2  surface 2  après 2  pourtant 2  performance 2  
txt0000000000000195 1251 348
mclaren 11  renault 10  points 9  saison 7  kimi 7  grand 6  fernando 6  alonso 6  championnat 6  monde 6  pilotes 6  toyota 6  course 6  prix 5  juan 5  pablo 5  montoya 5  giancarlo 5  fisichella 5  ferrari 5  
txt0000000000000196 1442 435
public 12  avignon 9  festival 6  années 5  robert 5  être 5  bien 5  spectacles 4  français 4  deux 4  veut 4  certains 4  comment 4  même 4  ministère 3  1981 3  1988 3  notamment 3  abirached 3  critique 3  
txt0000000000000197 468 215
sacd 6  landed 5  groupe 4  musique 3  future 3  days 3  soon 3  over 3  babaluma 3  unlimited 3  edition 3  passionnant 3  quatre 2  rock 2  1974 2  passage 2  stéréo 2  pistes 2  karoli 2  disque 2  
txt0000000000000198 333 145
visa 4  festival 3  reportage 3  prix 3  perpignan 2  septembre 2  agence 2  soldats 2  américains 2  irak 2  allé 2  première 2  expositions 2  semaine 1  professionnelle 1  image 1  achevée 1  soirée 1  projection 1  cours 1  
txt0000000000000199 687 247
palais 6  patrimoine 5  septembre 5  culture 5  france 5  tchèque 5  prague 4  historiques 4  pays 4  république 3  thème 3  manifestation 3  villes 3  journées 2  français 2  portes 2  monuments 2  europe 2  année 2  plupart 2  
txt0000000000000200 647 284
sufjan 4  stevens 4  feel 4  disque 3  album 3  come 3  illinoise 3  illinois 3  oeuvre 2  piano 2  prend 2  chanson 2  highland 2  près 2  etat 2  michigan 2  rock 2  toujours 2  entre 2  aurait 2  
txt0000000000000201 756 290
athlètes 6  saut 5  euros 5  être 4  équipe 4  france 4  paris 3  bien 3  décanation 3  lancer 3  bernard 3  amsalem 3  fédérations 3  david 3  charléty 2  venus 2  nombre 2  quant 2  parmi 2  après 2  
txt0000000000000202 881 329
maïs 8  transgènes 6  être 5  résultats 5  chapela 5  région 4  contamination 4  transgéniques 4  2004 4  quist 4  mexique 3  variétés 3  transgénique 3  allison 3  snow 3  université 3  équipe 3  2003 3  lignées 3  article 3  
txt0000000000000203 1145 358
france 20  coupe 8  équipe 7  monde 7  2006 6  match 6  groupe 6  deux 6  matches 6  millions 6  euros 6  irlande 5  bleus 4  allemagne 4  mondial 4  serait 4  rencontres 4  être 4  sera 4  football 4  
txt0000000000000204 1165 365
personnes 10  virus 10  vaccination 9  grippe 8  aviaire 7  couverture 6  vaccinale 6  contre 5  santé 5  être 5  experts 5  notamment 4  gées 4  risque 4  aujourd 4  h5n1 4  pandémie 4  auprès 4  professionnels 4  autorités 4  
txt0000000000000205 28 5
visualiser 2  desk 2  navigateur 2  affiche 2  frames 2  (null) 0  (null) 0  (null) 0  (null) 0  (null) 0  (null) 0  (null) 0  (null) 0  (null) 0  (null) 0  (null) 0  (null) 0  (null) 0  (null) 0  (null) 0  
txt0000000000000206 533 185
francis 6  delattre 6  fédération 5  ministère 5  serge 5  lecomte 5  sports 4  équipe 4  équestres 3  agrément 3  part 3  franconville 2  député 2  oise 2  annoncé 2  mardi 2  septembre 2  équitation 2  retrait 2  statuts 2  
txt0000000000000207 955 361
fado 27  carmo 5  amalia 5  carlos 4  très 3  lisbonne 3  1974 3  camané 3  rodrigues 3  alfredo 3  années 3  trois 3  portugal 3  femmes 3  puis 3  jusqu 3  paris 2  festival 2  france 2  fadiste 2  
txt0000000000000208 1143 414
comète 10  tempel 8  impact 7  sonde 6  très 5  collision 4  deep 4  espace 4  mission 4  comètes 4  violence 3  boulet 3  juillet 3  instruments 3  impacteur 3  état 3  terre 3  pourrait 3  loin 3  hearn 3  
txt0000000000000209 365 119
france 4  sujet 4  président 3  demandé 3  joueurs 3  domenech 3  basta 3  équipe 2  main 2  avant 2  monde 2  radio 2  rire 2  chansons 2  sélectionneur 2  raymond 2  capitaine 2  zidane 2  français 2  vais 2  
txt0000000000000210 413 188
paysagiste 5  lecture 3  mètres 3  espaces 3  entrée 3  aluminium 2  silos 2  vague 2  cuivre 2  courbe 2  tour 2  cité 2  architecture 2  patrimoine 2  palais 2  porte 2  dorée 2  seine 2  massimiliano 2  fuksas 2  
txt0000000000000211 1080 397
carbone 17  sols 11  effet 8  zones 6  chercheurs 5  réchauffement 5  climatique 5  pays 5  régions 5  également 5  cours 4  organique 4  arrouays 4  terrains 4  être 4  national 3  institute 3  angleterre 3  galles 3  entre 3  
txt0000000000000212 507 178
jules 4  scène 4  deux 3  médecin 3  paul 3  rien 3  bien 3  auteur 3  heures 3  hommes 2  pital 2  demande 2  petite 2  pièce 2  être 2  rire 2  vient 2  point 2  comique 2  puis 2  
txt0000000000000213 28 5
visualiser 2  desk 2  navigateur 2  affiche 2  frames 2  (null) 0  (null) 0  (null) 0  (null) 0  (null) 0  (null) 0  (null) 0  (null) 0  (null) 0  (null) 0  (null) 0  (null) 0  (null) 0  (null) 0  (null) 0  
txt0000000000000214 440 197
angleterre 4  équipe 3  après 2  tournoi 2  ashes 2  petite 2  urne 2  fois 2  devant 2  monde 2  foot 2  matches 2  télévision 2  cinq 2  nouvelle 2  cricket 2  subies 2  dieu 1  dois 1  mourir 1  
txt0000000000000215 787 308
archéologiques 5  réalité 5  virtuelle 5  données 5  être 5  institut 4  pièces 4  technologies 4  archéop 3  public 3  ausonius 3  trois 3  sphinx 3  chercheurs 3  pierre 3  explique 3  site 3  recherche 2  aquitaine 2  archéologique 2  
txt0000000000000216 733 285
nasa 5  navette 4  2006 4  vols 4  même 4  centre 4  spatial 4  avant 4  discovery 3  katrina 3  mars 3  américains 3  partenaires 3  michoud 3  nouvelles 2  spatiale 2  cyclone 2  deux 2  programme 2  nouvelle 2  
txt0000000000000217 619 235
granier 6  deux 4  combustion 4  claire 4  dessus 3  environ 3  contraire 3  directement 3  polluants 3  explique 3  atmosphère 3  trop 2  beaucoup 2  dioxyde 2  azote 2  chine 2  concentration 2  polluant 2  troposphère 2  couche 2  
txt0000000000000218 1053 305
federer 11  roger 10  agassi 9  andre 8  tournoi 8  grand 8  chelem 8  américain 6  finale 6  match 6  open 6  mondial 5  premier 5  deux 5  service 5  année 4  face 4  remporter 4  clijsters 4  roland 4  
txt0000000000000219 657 223
michelin 6  septembre 4  renault 4  pilote 4  course 4  mclaren 4  vraiment 4  dimanche 3  francorchamps 3  grand 3  prix 3  monde 3  toutes 3  kimi 3  toujours 3  points 3  équipe 3  encore 3  piste 2  belgique 2  
txt0000000000000220 1049 406
librairie 10  marie 9  jean 8  sevestre 8  sauramps 6  rentrée 6  montpellier 5  titres 5  livre 5  avons 4  ceux 3  propose 3  coeur 3  automne 3  romans 3  trop 3  littérature 3  jeune 3  septembre 2  livres 2  
txt0000000000000221 387 190
oberon 5  direction 3  john 3  eliot 3  gardiner 3  quant 3  weber 2  toujours 2  deux 2  anglais 2  planché 2  version 2  opéra 2  belle 2  musique 2  chevalier 2  huon 2  reiza 2  monteverdi 2  choir 2  
txt0000000000000222 588 257
raman 9  susheela 8  mills 6  music 5  crocodiles 5  tamoule 4  chanteuse 4  carnatique 4  chanson 4  culture 3  musique 3  exil 3  contradiction 2  musicale 2  compositeur 2  films 2  album 2  après 2  entre 2  vers 2  
txt0000000000000223 695 242
équipe 6  après 4  championnats 4  caire 4  stéphane 4  traineau 4  athènes 3  monde 3  encadrement 3  france 3  rougé 3  fédération 3  poste 3  fabien 3  argent 2  français 2  dimanche 2  septembre 2  médailles 2  anne 2  
txt0000000000000224 572 216
univers 5  explosion 5  milliards 5  années 5  être 5  septembre 4  lumière 4  astronomes 3  gamma 3  distance 3  énergie 3  noir 3  plusieurs 2  cosmique 2  rayons 2  manifestations 2  terre 2  environ 2  phénomène 2  dernier 2  
txt0000000000000225 1145 375
cérébrale 8  troubles 8  cause 5  charge 5  ischémie 5  thrombolyse 5  trois 5  vasculaires 4  accidents 4  cérébraux 4  prise 4  personnes 4  infarctus 4  artère 4  heures 4  risque 4  hémorragie 4  imagerie 4  compte 4  urgence 3  
txt0000000000000226 792 267
club 8  communication 5  michael 5  football 4  essien 4  lyon 4  grand 4  image 3  atteindre 3  très 3  joueurs 3  dimension 3  terrain 3  équipe 3  serait 3  stade 3  real 2  madrid 2  construction 2  avons 2  
txt0000000000000227 327 127
goutte 4  coussin 3  huile 3  phénomène 3  surface 2  paris 2  physique 2  yves 2  couder 2  théorique 2  liquide 2  même 2  gouttes 2  chacun 1  déjà 1  glisser 1  plaque 1  électrique 1  portée 1  vapeur 1  
txt0000000000000228 451 176
pays 8  grippe 6  docteur 5  stohr 5  responsable 3  pandémie 3  risque 3  plans 3  nouveau 2  aviaire 2  ampleur 2  planétaire 2  mieux 2  passage 2  espèce 2  humaine 2  virus 2  hongkong 2  menace 2  celle 2  
txt0000000000000229 1012 357
capture 6  stockage 5  charbon 4  milliards 4  tonnes 4  tonne 4  énergie 3  pétrole 3  effet 3  climat 3  indique 3  technologies 3  encore 3  géologiques 3  être 3  émissions 3  sera 3  même 3  procédés 3  envisagés 3  
txt0000000000000230 1012 357
capture 6  stockage 5  charbon 4  milliards 4  tonnes 4  tonne 4  énergie 3  pétrole 3  effet 3  climat 3  indique 3  technologies 3  encore 3  géologiques 3  être 3  émissions 3  sera 3  même 3  procédés 3  envisagés 3  
txt0000000000000231 404 178
preljocaj 4  ballet 4  angelin 3  opéra 3  corps 3  spectacle 2  paris 2  révèle 2  celui 2  amour 2  rend 2  danse 2  très 2  méandres 1  passion 1  amoureuse 1  voies 1  détournées 1  raccourcis 1  impromptus 1  
txt0000000000000232 882 333
film 14  robert 13  wise 11  succès 7  west 4  side 4  story 4  films 4  ryan 4  deux 4  scène 4  septembre 3  même 3  réalisateur 3  julie 3  mélodie 3  bonheur 3  science 3  fiction 3  welles 3  
txt0000000000000233 534 200
acoustique 5  scène 5  être 5  acoustiques 4  salle 4  champs 3  elysées 3  septembre 3  travaux 3  réverbération 3  bois 3  sécheresse 2  concerts 2  entre 2  2005 2  cabinets 2  acousticiens 2  artec 2  également 2  résultats 2  
txt0000000000000234 728 257
groupe 7  lille 5  équipe 4  claude 4  puel 4  stade 4  juventus 4  turin 4  arsenal 4  benfica 3  ligue 3  mercredi 3  bruges 3  thoune 3  manchester 3  united 3  match 3  avons 3  choses 3  pourtant 3  
txt0000000000000235 829 267
équipe 8  basket 8  france 7  entra 5  joueurs 5  sélectionneur 3  1998 3  championnat 3  dire 3  français 3  faute 3  médias 3  avons 3  très 3  rugby 3  sport 3  message 3  septembre 2  juin 2  club 2  
txt0000000000000236 513 204
quasar 6  galaxie 5  astronomes 4  centre 3  millions 3  matière 3  équipe 2  trou 2  noir 2  très 2  univers 2  être 2  étoiles 2  semble 2  telle 2  luminosité 2  quasars 2  cosmos 2  étoile 2  composée 2  
txt0000000000000237 1189 425
sonde 8  terre 7  itokawa 7  mission 6  hayabusa 6  surface 5  japonais 4  comète 4  deux 4  astéroïde 4  échantillons 4  robot 4  kilomètres 4  celui 4  michel 4  exploration 3  spatiale 3  juillet 3  autour 3  impact 3  
txt0000000000000238 544 172
deux 5  même 4  bien 3  anouk 3  aimée 3  heures 3  durée 3  devient 2  écrire 2  souvent 2  loin 2  prend 2  lettres 2  vont 2  mieux 2  alexa 2  love 2  letters 2  gurney 2  clair 2  
txt0000000000000239 686 261
france 9  prévision 8  météo 6  inondations 4  ministère 4  fois 3  septembre 3  cartes 3  niveau 3  rouge 3  jour 3  précipitations 3  très 3  2006 3  écologie 3  nuages 3  phénomènes 3  arome 3  mieux 2  zone 2  
txt0000000000000240 732 274
girija 8  devi 8  ville 5  chaurasia 5  musique 4  raga 4  indienne 3  paris 3  temps 3  septembre 3  apprentissage 3  voix 3  chakrabarty 3  internet 3  classique 2  inde 2  nord 2  formes 2  applique 2  ouverture 2  
txt0000000000000241 1074 334
cellules 29  souches 15  embryonnaires 11  cardiaque 11  infarctus 9  être 6  greffe 5  menasché 5  vers 4  privilège 4  équipe 4  mouton 4  cardiaques 4  moutons 4  muscle 3  myocarde 3  animal 3  coeur 3  différenciation 3  existe 3  
txt0000000000000242 573 198
france 7  deux 6  deuxième 6  très 5  français 5  matches 4  points 4  troisième 3  groupe 3  match 3  barrage 3  trois 3  slovénie 3  slovènes 3  dimanche 3  dernier 3  parker 3  toujours 3  tour 2  aura 2  
txt0000000000000243 28 5
visualiser 2  desk 2  navigateur 2  affiche 2  frames 2  (null) 0  (null) 0  (null) 0  (null) 0  (null) 0  (null) 0  (null) 0  (null) 0  (null) 0  (null) 0  (null) 0  (null) 0  (null) 0  (null) 0  (null) 0  
txt0000000000000244 199 81
visiteurs 4  septembre 3  journées 3  français 3  samedi 2  ministère 2  palais 2  elysée 2  président 2  millions 1  grosso 1  modo 1  autant 1  dernier 1  investi 1  dimanche 1  sites 1  ouverts 1  france 1  occasion 1  
txt0000000000000245 68 23
visualiser 2  desk 2  navigateur 2  affiche 2  frames 2  retour 1  zidane 1  équipe 1  france 1  derniers 1  matchs 1  qualification 1  sports 1  donnez 1  commentaires 1  toutes 1  compétitions 1  sportives 1  organisation 1  sport 1  
txt0000000000000246 582 207
équipe 5  tony 5  europe 4  match 4  claude 4  bergeaud 4  bleus 4  français 4  parker 4  après 3  champions 3  deux 3  serbes 3  septembre 3  championnat 3  france 3  trois 3  points 3  euro 3  monde 2  
txt0000000000000247 445 175
exposition 5  doses 3  présents 3  foetus 3  distance 3  différenciation 3  sexuelle 3  troubles 3  fertilité 3  masculine 3  certains 3  polluants 2  environnement 2  alimentation 2  substances 2  perturbateurs 2  endocriniens 2  travaux 2  notamment 2  anogénitale 2  
txt0000000000000248 693 278
paulo 6  bois 3  cartoucherie 3  dança 3  comunidade 3  ivaldo 3  bertazzo 3  indienne 3  musique 3  epée 2  vincennes 2  projet 2  place 2  chorégraphe 2  brésilien 2  sept 2  samba 2  artistiques 2  trente 2  enfants 2  
txt0000000000000249 1180 416
agricole 5  agriculteurs 5  étais 5  très 5  début 5  champs 4  chantal 4  père 4  exploitation 4  toujours 4  gens 3  champ 3  temps 3  nonette 3  faucheurs 3  volontaires 3  même 3  deux 3  michel 3  dessus 3  
txt0000000000000250 921 298
architecture 10  architectes 10  agence 5  postes 5  agences 5  profession 4  entreprises 4  activité 4  timent 4  études 4  archibat 3  candidats 3  année 3  étudiants 3  réforme 3  mois 3  après 3  commerciales 3  elles 3  écoles 3  
txt0000000000000251 1258 474
girodet 15  louvre 9  jusqu 9  david 5  toile 5  premier 4  même 4  louis 3  1767 3  mort 3  1824 3  aucun 3  artiste 3  oeuvre 3  autant 3  janvier 3  2006 3  musée 3  montargis 2  sous 2  
txt0000000000000252 931 337
virus 11  contre 7  h5n1 6  vaccin 6  millions 5  sanofi 5  production 4  vaccins 4  grippe 4  firmes 4  pasteur 4  recherche 4  doses 4  aujourd 3  conférence 3  malte 3  plusieurs 3  lancé 3  sanitaires 3  pandémie 3  
txt0000000000000253 835 281
saison 12  football 10  prix 7  matches 7  2004 6  league 5  championnat 4  britannique 4  clubs 4  premier 4  fréquentation 4  stades 4  2005 4  entre 4  match 4  question 3  grands 3  france 3  chelsea 3  arsenal 3  
txt0000000000000254 337 123
septembre 3  journée 3  face 3  après 2  monaco 2  deux 2  menés 2  attaquant 2  score 2  seconde 2  période 2  première 2  saint 2  classement 2  point 2  lyon 2  minute 2  avant 2  tableau 2  mans 2  
txt0000000000000255 1104 410
france 12  américain 8  paris 6  français 5  ohio 4  stanger 4  pays 3  inverse 3  etats 3  unis 3  newsweek 3  toutes 3  monde 3  années 3  cours 3  seul 3  américains 3  serait 2  faux 2  genre 2  
txt0000000000000256 408 157
points 6  jeudi 5  très 4  france 3  réussi 3  français 3  match 3  défense 3  quart 3  lituaniens 3  rigaudeau 3  soirée 2  basket 2  ball 2  demi 2  lituanie 2  serbie 2  début 2  bergeaud 2  bleus 2  
txt0000000000000257 849 325
effet 7  végétation 5  carbone 5  europe 4  2003 4  serre 4  forêts 4  écosystèmes 4  réchauffement 4  nature 3  étude 3  températures 2  ainsi 2  deux 2  impact 2  conséquence 2  risque 2  épisodes 2  septembre 2  chercheurs 2  
txt0000000000000258 311 118
homme 4  grippe 4  aviaire 4  vient 4  mort 3  pital 3  test 3  indonésie 2  lundi 2  heures 2  après 2  annoncé 2  djakarta 2  révélé 2  virus 2  maladies 2  infectieuses 2  autorités 2  sanitaires 2  avant 2  
txt0000000000000259 372 149
katché 6  jazz 6  manu 4  star 4  disque 3  neighbourhood 3  recherche 2  nouvelle 2  aurait 2  parcours 2  batteur 2  pianiste 2  garbarek 2  part 2  membre 1  jury 1  émission 1  télévision 1  équivalent 1  academy 1  
txt0000000000000260 558 201
après 5  entra 5  journée 4  tête 4  neur 4  grégory 3  coupet 3  imposé 3  points 3  troisième 3  victoire 3  place 3  issue 2  nantes 2  lyon 2  septembre 2  gardien 2  france 2  face 2  très 2  
txt0000000000000261 457 171
tour 5  saison 3  boonen 3  dimanche 3  coureur 3  coup 2  titre 2  champion 2  monde 2  terme 2  grand 2  routes 2  avant 2  italien 2  équipe 2  arrivée 2  ligne 2  long 2  étape 2  france 2  
txt0000000000000262 891 335
lens 9  louvre 8  région 7  président 4  sanaa 3  voix 3  projet 3  deux 3  architecture 3  celle 3  zaha 3  hadid 3  delcourt 3  être 3  japonais 3  également 3  implantation 3  établissement 3  musée 3  entre 3  
txt0000000000000263 1154 358
stade 24  france 15  lille 13  saint 9  français 8  rugby 8  club 8  ligue 6  denis 6  places 6  match 5  champions 5  football 5  paris 5  résidant 5  trois 5  consortium 5  septembre 4  championnat 4  politique 4  
txt0000000000000264 292 126
cinémathèque 4  film 4  discours 3  scorsese 3  parmi 3  cinéaste 2  américain 2  martin 2  patrimoine 2  foundation 2  institution 2  ministre 2  pouvoirs 2  publics 2  après 2  président 2  cinéastes 2  lundi 1  septembre 1  couronner 1  
txt0000000000000265 1325 476
voyager 12  solaire 9  choc 9  système 8  terminal 6  soleil 6  sonde 5  aura 5  devant 5  première 4  lancée 4  pioneer 4  distance 4  kilomètres 4  particules 4  milieu 4  avant 4  vers 4  panne 4  décembre 3  
txt0000000000000266 801 273
dipe 13  colone 8  scène 7  mario 5  martone 5  homme 5  metteur 4  histoire 4  sophocle 3  rome 3  sept 3  deux 3  1999 3  argentina 3  salle 3  ville 3  india 3  vient 3  antigone 3  tragédie 2  
txt0000000000000267 548 202
avant 7  première 4  hossegor 3  kelly 3  slater 3  septième 3  titre 3  bien 3  monde 2  américain 2  également 2  perdu 2  envie 2  premier 2  sacre 2  professionnels 2  génération 2  surfeurs 2  circuit 2  nouveau 2  
txt0000000000000268 723 254
sida 5  robyn 5  orlin 4  puis 4  afrique 3  spectacle 3  must 3  suckers 3  danse 3  pièce 3  tournée 3  danseurs 3  sucettes 2  chorégraphe 2  with 2  wrappers 2  2002 2  paris 2  centre 2  national 2  
txt0000000000000269 578 209
ososphère 6  octobre 6  strasbourg 4  festival 4  deux 4  septembre 4  emergences 4  heures 4  musique 3  concert 3  paris 3  réseau 3  électroniques 3  quartier 2  laiterie 2  année 2  quatre 2  électronique 2  nuits 2  vendredi 2  
txt0000000000000270 454 141
arctique 9  superficie 7  nsidc 5  dernières 5  glace 5  septembre 4  effectuées 4  glaces 3  observations 3  calotte 3  océan 3  faible 3  années 3  cours 3  mesures 2  satellites 2  réduite 2  julienne 2  stroeve 2  climatologue 2  
txt0000000000000271 15 5
visualiser 1  desk 1  navigateur 1  affiche 1  frames 1  (null) 0  (null) 0  (null) 0  (null) 0  (null) 0  (null) 0  (null) 0  (null) 0  (null) 0  (null) 0  (null) 0  (null) 0  (null) 0  (null) 0  (null) 0  
