img0 64 80000
1963 0 0 0 62 0 0 0 0 0 0 0 0 0 0 0 184 0 0 0 2383 5523 0 0 0 275 0 0 0 0 0 0 0 0 0 0 5 1250 0 0 0 13331 8086 0 0 0 243 1 0 0 0 0 0 0 0 0 0 158 2220 0 0 1 3816 499 
img1 64 39801
1944 0 0 0 61 0 0 0 0 0 0 0 0 0 0 0 176 0 0 0 2375 5453 0 0 0 280 0 0 0 0 0 0 0 0 0 0 4 1218 0 0 0 13256 7955 0 0 0 236 1 0 0 0 0 0 0 0 0 0 159 2180 0 0 1 3811 691 
img2 64 80000
8407 0 0 0 41 0 0 0 0 0 0 0 0 0 0 0 609 0 0 0 8060 5258 0 0 0 55 0 0 0 0 0 0 0 0 0 0 791 2466 0 0 347 9452 1822 0 0 0 73 0 0 0 0 0 0 0 0 0 6 230 534 0 0 12 1006 831 
img3 64 39801
8319 0 0 0 43 0 0 0 0 0 0 0 0 0 0 0 584 0 0 0 8015 5206 0 0 0 59 0 0 0 1 0 0 0 0 0 0 778 2408 0 0 352 9383 1801 0 0 0 73 0 1 0 0 0 0 0 0 0 6 223 527 0 5 20 996 1001 
img4 64 80000
8119 1 0 0 32 25 0 0 0 0 0 0 0 0 0 0 2204 0 0 0 5152 2643 0 0 0 32 4 0 0 0 0 0 0 0 0 0 1919 3326 0 0 43 7642 2010 0 0 0 110 0 0 0 0 0 0 0 0 0 8 1145 1628 0 0 2 2973 982 
img5 64 39801
8082 1 0 0 33 25 0 0 0 0 0 0 0 0 0 0 2168 0 0 0 5122 2624 0 0 0 34 3 0 0 0 0 0 0 0 0 0 1886 3282 0 0 43 7577 1985 0 0 0 99 0 0 0 0 0 0 0 0 0 8 1130 1577 0 2 6 2951 1163 
img6 64 80000
13170 0 0 0 28 0 0 0 0 0 0 0 0 0 0 0 1877 2 0 0 4892 6699 0 0 0 21 1 0 0 0 0 0 0 0 0 0 3 1883 1 0 0 4780 3814 0 0 0 6 0 0 0 0 0 0 0 0 0 0 3 942 0 0 0 1392 486 
img7 64 39801
13004 0 0 0 30 0 0 0 0 0 0 0 0 0 0 0 1829 2 0 0 4859 6656 0 0 0 21 1 0 0 0 0 0 0 0 0 0 3 1845 1 0 0 4766 3779 0 0 0 6 0 2 0 0 0 0 0 0 0 0 3 928 0 10 5 1399 652 
img8 64 80000
2016 16972 33 0 10 59 0 0 0 0 0 0 0 0 0 0 282 23 0 0 210 8280 169 0 0 55 123 0 0 0 0 0 0 0 0 0 0 3050 42 0 0 1166 4382 31 0 0 58 89 0 0 0 0 0 0 0 0 0 0 140 2 0 0 226 2582 
img9 64 39801
2014 16606 29 0 11 58 0 0 0 0 0 0 0 0 0 6 281 21 0 0 215 8326 163 0 0 58 127 0 0 0 0 147 0 0 0 0 0 2978 40 0 0 1193 4352 31 0 0 64 101 0 0 0 0 0 0 0 0 0 0 135 2 0 0 232 2611 
img10 64 80000
6446 969 0 0 1 1102 2271 0 0 0 0 0 0 0 0 0 0 0 0 0 1 1893 2203 0 0 5 2576 172 0 0 0 0 0 0 0 0 0 3 1 0 0 1 6145 5061 0 0 1 3824 0 0 0 0 0 0 0 0 0 0 0 0 0 0 0 7325 
img11 64 39801
6369 950 0 1 1 1098 2207 1 0 0 0 0 0 1 0 4 0 0 0 0 1 1880 2166 0 0 5 2548 168 0 0 0 4 0 0 0 0 0 4 1 0 0 1 6106 4973 0 0 1 3846 0 0 0 0 0 0 0 0 0 0 0 0 0 0 0 7465 
img12 64 80000
7977 0 0 0 7 0 0 0 0 0 0 0 0 0 0 0 6359 1 0 0 5711 2242 0 0 0 159 0 0 0 0 0 0 21 0 0 0 6555 2918 0 0 0 5965 71 0 0 0 0 0 0 0 0 0 266 60 0 0 52 1631 5 0 0 0 0 0 
img13 64 39801
7926 0 0 0 7 0 0 0 0 0 0 0 0 0 0 0 6212 1 0 0 5739 2211 0 0 0 149 0 0 0 0 0 0 20 0 0 0 6504 2866 0 0 1 5919 69 2 0 0 0 0 0 0 0 0 265 57 0 0 53 1624 4 0 0 0 0 172 
img14 64 80000
7984 82 0 0 6722 750 0 0 0 0 0 0 0 0 0 0 0 0 0 0 7997 3652 37 0 1446 4062 57 0 0 0 0 0 0 0 0 0 0 0 0 0 147 2563 349 11 11 1284 495 21 0 0 0 0 0 0 0 0 0 0 0 0 0 719 1451 160 
img15 64 39801
7834 83 0 0 6696 750 0 0 0 0 0 0 0 0 0 0 0 0 0 0 7942 3595 35 0 1449 4044 59 0 0 0 0 0 0 0 0 0 0 0 0 0 148 2529 341 5 11 1270 494 22 0 0 0 0 0 0 0 0 0 0 0 0 3 714 1430 347 
img16 64 80000
10720 75 0 0 1765 4488 0 0 0 0 0 0 0 0 0 0 1936 43 0 0 3381 12039 62 0 12 487 585 0 0 0 0 0 166 4 0 0 257 266 1 0 144 743 1739 4 1 39 74 18 38 0 0 0 3 8 0 0 110 110 29 1 28 327 278 19 
img17 64 39801
10541 76 0 0 1729 4470 0 0 0 0 0 0 0 0 0 0 1924 44 0 0 3354 11944 61 0 12 486 578 0 1 0 0 0 163 4 0 0 258 264 1 0 144 741 1728 3 2 39 73 18 36 0 0 0 3 8 0 0 110 110 29 1 33 330 279 204 
img18 64 80000
2532 295 12 0 8 189 90 153 0 0 2 127 0 0 0 0 2525 155 0 0 461 2120 2043 32 1 16 5046 329 0 0 0 0 5870 13 0 0 916 1135 104 0 14 320 1833 402 0 0 47 198 741 3 0 0 2248 1281 9 0 720 2197 858 16 26 45 436 4432 
img19 64 39801
2508 292 12 0 8 190 90 153 0 0 2 125 0 0 0 0 2510 154 0 0 465 2098 1976 32 1 14 5011 313 0 0 0 0 5837 14 0 0 921 1120 104 0 14 323 1767 389 0 0 35 196 730 3 0 0 2225 1264 9 0 720 2200 857 16 26 46 445 4586 
img20 64 41440
994 0 0 0 0 0 0 0 0 0 0 0 0 0 0 0 0 0 0 0 0 0 0 0 0 0 0 0 0 0 0 0 0 0 0 0 0 0 0 0 0 0 0 0 0 0 0 0 0 0 0 0 0 0 0 0 0 0 0 0 0 0 0 19726 
img21 64 20720
994 0 0 0 0 0 0 0 0 0 0 0 0 0 0 0 0 0 0 0 0 0 0 0 0 0 0 0 0 0 0 0 0 0 0 0 0 0 0 0 0 0 0 0 0 0 0 0 0 0 0 0 0 0 0 0 0 0 0 0 0 0 0 19726 
img22 64 41440
942 0 0 0 0 0 0 0 0 0 0 0 0 0 0 0 0 0 0 0 0 0 0 0 0 0 0 0 0 0 0 0 0 0 0 0 0 0 0 0 0 0 0 0 0 0 0 0 0 0 0 0 0 0 0 0 0 0 0 0 0 0 0 19778 
img23 64 20720
942 0 0 0 0 0 0 0 0 0 0 0 0 0 0 0 0 0 0 0 0 0 0 0 0 0 0 0 0 0 0 0 0 0 0 0 0 0 0 0 0 0 0 0 0 0 0 0 0 0 0 0 0 0 0 0 0 0 0 0 0 0 0 19778 
img24 64 30720
3881 0 0 0 0 0 0 0 0 0 0 0 0 0 0 0 0 0 0 0 0 0 0 0 0 0 0 0 0 0 0 0 0 0 0 0 0 0 0 0 0 0 0 0 0 0 0 0 0 0 0 0 0 0 0 0 0 0 0 0 0 0 0 11479 
img25 64 15360
3881 0 0 0 0 0 0 0 0 0 0 0 0 0 0 0 0 0 0 0 0 0 0 0 0 0 0 0 0 0 0 0 0 0 0 0 0 0 0 0 0 0 11479 0 0 0 0 0 0 0 0 0 0 0 0 0 0 0 0 0 0 0 0 0 
img26 64 32768
5263 0 0 0 0 0 0 0 0 0 0 0 0 0 0 0 0 0 0 0 0 0 0 0 0 0 0 0 0 0 0 0 0 0 0 0 0 0 0 0 0 0 0 0 0 0 0 0 0 0 0 0 0 0 0 0 0 0 0 0 0 0 0 11121 
img27 64 16384
5263 0 0 0 0 0 0 0 0 0 0 0 0 0 0 0 0 0 0 0 0 11121 0 0 0 0 0 0 0 0 0 0 0 0 0 0 0 0 0 0 0 0 0 0 0 0 0 0 0 0 0 0 0 0 0 0 0 0 0 0 0 0 0 0 
