1 0 /home/serge/Travail/UPSSITECH/s5/PFR/git/sprint3/data/Sons/Corpus/corpus_m6.bin 1 100.000000 sri-pfr
1 0 /home/serge/Travail/UPSSITECH/s5/PFR/git/sprint3/data/Sons/Corpus/corpus_m6_LE.bin 2 100.000000 sri-pfr
1 0 /home/serge/Travail/UPSSITECH/s5/PFR/git/sprint3/data/Sons/Requete/jingle_m6.bin 3 99.090437 sri-pfr
1 0 /home/serge/Travail/UPSSITECH/s5/PFR/git/sprint3/data/Sons/Requete/jingle_m6_LE.bin 4 99.090437 sri-pfr
2 0 /home/serge/Travail/UPSSITECH/s5/PFR/git/sprint3/data/Sons/Requete/jingle_m6.bin 1 100.000000 sri-pfr
2 0 /home/serge/Travail/UPSSITECH/s5/PFR/git/sprint3/data/Sons/Requete/jingle_m6_LE.bin 2 100.000000 sri-pfr
2 0 /home/serge/Travail/UPSSITECH/s5/PFR/git/sprint3/data/Sons/Corpus/corpus_m6.bin 3 99.090437 sri-pfr
2 0 /home/serge/Travail/UPSSITECH/s5/PFR/git/sprint3/data/Sons/Corpus/corpus_m6_LE.bin 4 99.090437 sri-pfr
