1 0 /home/serge/Travail/UPSSITECH/s5/PFR/git/sprint3/data/Textes/Textes_UTF8/03-Des_chercheurs_parviennent__E0_r_E9g_E9n_E9rer_utf8.xml 1 100.000000 sri-pfr
1 0 /home/serge/Travail/UPSSITECH/s5/PFR/git/sprint3/data/Textes/Textes_UTF8/17-Une__E9quipe_fran_E7aise_a_r_E9ussi_utf8.xml 2 20.000000 sri-pfr
1 0 /home/serge/Travail/UPSSITECH/s5/PFR/git/sprint3/data/Textes/Textes_UTF8/10-La_r_E9alit_E9_virtuelle_et_l_informatique_utf8.xml 3 15.000001 sri-pfr
1 0 /home/serge/Travail/UPSSITECH/s5/PFR/git/sprint3/data/Textes/Textes_UTF8/05-Tours_d_honneur_pour_les_athl_E8tes_utf8.xml 4 10.000000 sri-pfr
1 0 /home/serge/Travail/UPSSITECH/s5/PFR/git/sprint3/data/Textes/Textes_UTF8/06-La_contamination_du_ma_EFs_par_utf8.xml 5 10.000000 sri-pfr
1 0 /home/serge/Travail/UPSSITECH/s5/PFR/git/sprint3/data/Textes/Textes_UTF8/06-Les_mauvais_comptes_d_une__E9limination_utf8.xml 6 10.000000 sri-pfr
1 0 /home/serge/Travail/UPSSITECH/s5/PFR/git/sprint3/data/Textes/Textes_UTF8/08-Sous_l_effet_du_r_E9chauffement,_les_utf8.xml 7 10.000000 sri-pfr
1 0 /home/serge/Travail/UPSSITECH/s5/PFR/git/sprint3/data/Textes/Textes_UTF8/15-Le_Th_E9_E2tre_des_Champs-Elys_E9es_s_offre_utf8.xml 8 10.000000 sri-pfr
1 0 /home/serge/Travail/UPSSITECH/s5/PFR/git/sprint3/data/Textes/Textes_UTF8/15-Un_quasar_solitaire_bouleverse_les_utf8.xml 9 10.000000 sri-pfr
2 0 /home/serge/Travail/UPSSITECH/s5/PFR/git/sprint3/data/Textes/Textes_UTF8/03-Mimer_un_signal_nerveux_pour_utf8.xml 1 100.000000 sri-pfr
2 0 /home/serge/Travail/UPSSITECH/s5/PFR/git/sprint3/data/Textes/Textes_UTF8/09-Miracle___le_cricket_est_utf8.xml 2 5.000000 sri-pfr
2 0 /home/serge/Travail/UPSSITECH/s5/PFR/git/sprint3/data/Textes/Textes_UTF8/13-Ligue_des_champions____Si_utf8.xml 3 5.000000 sri-pfr
2 0 /home/serge/Travail/UPSSITECH/s5/PFR/git/sprint3/data/Textes/Textes_UTF8/15-Lille_s_incline_dans_les_utf8.xml 4 5.000000 sri-pfr
2 0 /home/serge/Travail/UPSSITECH/s5/PFR/git/sprint3/data/Textes/Textes_UTF8/22-Dominique_No_EBl____Les_architectes_utf8.xml 5 5.000000 sri-pfr
2 0 /home/serge/Travail/UPSSITECH/s5/PFR/git/sprint3/data/Textes/Textes_UTF8/27-Le_Stade_de_France_s_ouvre_utf8.xml 6 5.000000 sri-pfr
2 0 /home/serge/Travail/UPSSITECH/s5/PFR/git/sprint3/data/Textes/Textes_UTF8/27-Voyager_1_s_aventure_dans_l_au-del_E0_utf8.xml 7 5.000000 sri-pfr
2 0 /home/serge/Travail/UPSSITECH/s5/PFR/git/sprint3/data/Textes/03-Des_chercheurs_parviennent__E0_r_E9g_E9n_E9rer.xml 8 0.000000 sri-pfr
2 0 /home/serge/Travail/UPSSITECH/s5/PFR/git/sprint3/data/Textes/03-Mimer_un_signal_nerveux_pour.xml 9 0.000000 sri-pfr
3 0 /home/serge/Travail/UPSSITECH/s5/PFR/git/sprint3/data/Textes/Textes_UTF8/05-Au_stade_d_Abidjan,_la_d_E9faite_utf8.xml 1 100.000000 sri-pfr
3 0 /home/serge/Travail/UPSSITECH/s5/PFR/git/sprint3/data/Textes/Textes_UTF8/06-Les_mauvais_comptes_d_une__E9limination_utf8.xml 2 15.000001 sri-pfr
3 0 /home/serge/Travail/UPSSITECH/s5/PFR/git/sprint3/data/Textes/Textes_UTF8/22-Les_clubs_de_football_anglais_utf8.xml 3 15.000001 sri-pfr
3 0 /home/serge/Travail/UPSSITECH/s5/PFR/git/sprint3/data/Textes/Textes_UTF8/08-L__E9quipe_de_France_victime_d_un_utf8.xml 4 10.000000 sri-pfr
3 0 /home/serge/Travail/UPSSITECH/s5/PFR/git/sprint3/data/Textes/Textes_UTF8/08-Sous_l_effet_du_r_E9chauffement,_les_utf8.xml 5 10.000000 sri-pfr
3 0 /home/serge/Travail/UPSSITECH/s5/PFR/git/sprint3/data/Textes/Textes_UTF8/13-Ligue_des_champions____Si_utf8.xml 6 10.000000 sri-pfr
3 0 /home/serge/Travail/UPSSITECH/s5/PFR/git/sprint3/data/Textes/Textes_UTF8/15-Lille_s_incline_dans_les_utf8.xml 7 10.000000 sri-pfr
3 0 /home/serge/Travail/UPSSITECH/s5/PFR/git/sprint3/data/Textes/Textes_UTF8/15-_Si_on_veut_aller_trop_utf8.xml 8 10.000000 sri-pfr
3 0 /home/serge/Travail/UPSSITECH/s5/PFR/git/sprint3/data/Textes/Textes_UTF8/18-Ligue_1___Lyon_a_utf8.xml 9 10.000000 sri-pfr
4 0 /home/serge/Travail/UPSSITECH/s5/PFR/git/sprint3/data/Textes/Textes_UTF8/05-Edition___les_mots_et_utf8.xml 1 100.000000 sri-pfr
4 0 /home/serge/Travail/UPSSITECH/s5/PFR/git/sprint3/data/Textes/Textes_UTF8/08-Carlos_do_Carmo____Le_utf8.xml 2 15.000001 sri-pfr
4 0 /home/serge/Travail/UPSSITECH/s5/PFR/git/sprint3/data/Textes/Textes_UTF8/05-La_circoncision_pourrait_r_E9duire_le_utf8.xml 3 10.000000 sri-pfr
4 0 /home/serge/Travail/UPSSITECH/s5/PFR/git/sprint3/data/Textes/Textes_UTF8/05-L_apn_E9iste_fran_E7ais_Guillaume_N_E9ry_plonge_utf8.xml 4 10.000000 sri-pfr
4 0 /home/serge/Travail/UPSSITECH/s5/PFR/git/sprint3/data/Textes/Textes_UTF8/26-Lyon_prend_ses_aises_en_utf8.xml 5 10.000000 sri-pfr
4 0 /home/serge/Travail/UPSSITECH/s5/PFR/git/sprint3/data/Textes/Textes_UTF8/29-Forte_r_E9duction_de_la_calotte_utf8.xml 6 10.000000 sri-pfr
4 0 /home/serge/Travail/UPSSITECH/s5/PFR/git/sprint3/data/Textes/Textes_UTF8/05-Le_th_E9_E2tre_de_texte_confront_E9_utf8.xml 7 5.000000 sri-pfr
4 0 /home/serge/Travail/UPSSITECH/s5/PFR/git/sprint3/data/Textes/Textes_UTF8/05-Tours_d_honneur_pour_les_athl_E8tes_utf8.xml 8 5.000000 sri-pfr
4 0 /home/serge/Travail/UPSSITECH/s5/PFR/git/sprint3/data/Textes/Textes_UTF8/08-La_mission_Deep_Impact_permet_utf8.xml 9 5.000000 sri-pfr
5 0 /home/serge/Travail/UPSSITECH/s5/PFR/git/sprint3/data/Textes/Textes_UTF8/05-Jean-Christophe_Bette_a_d_FB_attendre_utf8.xml 1 100.000000 sri-pfr
5 0 /home/serge/Travail/UPSSITECH/s5/PFR/git/sprint3/data/Textes/Textes_UTF8/21-La_France_se_r_E9veille_pour_utf8.xml 2 15.000001 sri-pfr
5 0 /home/serge/Travail/UPSSITECH/s5/PFR/git/sprint3/data/Textes/Textes_UTF8/05-L_apn_E9iste_fran_E7ais_Guillaume_N_E9ry_plonge_utf8.xml 3 10.000000 sri-pfr
5 0 /home/serge/Travail/UPSSITECH/s5/PFR/git/sprint3/data/Textes/Textes_UTF8/05-Le_Colombien_Juan_Pablo_Montoya_utf8.xml 4 10.000000 sri-pfr
5 0 /home/serge/Travail/UPSSITECH/s5/PFR/git/sprint3/data/Textes/Textes_UTF8/05-Le_th_E9_E2tre_de_texte_confront_E9_utf8.xml 5 10.000000 sri-pfr
5 0 /home/serge/Travail/UPSSITECH/s5/PFR/git/sprint3/data/Textes/Textes_UTF8/06-Les_mauvais_comptes_d_une__E9limination_utf8.xml 6 10.000000 sri-pfr
5 0 /home/serge/Travail/UPSSITECH/s5/PFR/git/sprint3/data/Textes/Textes_UTF8/08-L__E9quipe_de_France_victime_d_un_utf8.xml 7 10.000000 sri-pfr
5 0 /home/serge/Travail/UPSSITECH/s5/PFR/git/sprint3/data/Textes/Textes_UTF8/12-Fernando_Alonso_n_est_plus_qu__E0_utf8.xml 8 10.000000 sri-pfr
5 0 /home/serge/Travail/UPSSITECH/s5/PFR/git/sprint3/data/Textes/Textes_UTF8/12-Succ_E8s_sur_les_tatamis,_pol_E9mique_utf8.xml 9 10.000000 sri-pfr
6 0 /home/serge/Travail/UPSSITECH/s5/PFR/git/sprint3/data/Textes/Textes_UTF8/05-L_apn_E9iste_fran_E7ais_Guillaume_N_E9ry_plonge_utf8.xml 1 100.000000 sri-pfr
6 0 /home/serge/Travail/UPSSITECH/s5/PFR/git/sprint3/data/Textes/Textes_UTF8/09-Miracle___le_cricket_est_utf8.xml 2 20.000000 sri-pfr
6 0 /home/serge/Travail/UPSSITECH/s5/PFR/git/sprint3/data/Textes/Textes_UTF8/12-Succ_E8s_sur_les_tatamis,_pol_E9mique_utf8.xml 3 20.000000 sri-pfr
6 0 /home/serge/Travail/UPSSITECH/s5/PFR/git/sprint3/data/Textes/Textes_UTF8/21-La_France_se_r_E9veille_pour_utf8.xml 4 20.000000 sri-pfr
6 0 /home/serge/Travail/UPSSITECH/s5/PFR/git/sprint3/data/Textes/Textes_UTF8/05-Tours_d_honneur_pour_les_athl_E8tes_utf8.xml 5 15.000001 sri-pfr
6 0 /home/serge/Travail/UPSSITECH/s5/PFR/git/sprint3/data/Textes/Textes_UTF8/08-L__E9quipe_de_France_victime_d_un_utf8.xml 6 15.000001 sri-pfr
6 0 /home/serge/Travail/UPSSITECH/s5/PFR/git/sprint3/data/Textes/Textes_UTF8/12-Fernando_Alonso_n_est_plus_qu__E0_utf8.xml 7 15.000001 sri-pfr
6 0 /home/serge/Travail/UPSSITECH/s5/PFR/git/sprint3/data/Textes/Textes_UTF8/13-Ligue_des_champions____Si_utf8.xml 8 15.000001 sri-pfr
6 0 /home/serge/Travail/UPSSITECH/s5/PFR/git/sprint3/data/Textes/Textes_UTF8/15-_Si_on_veut_aller_trop_utf8.xml 9 15.000001 sri-pfr
7 0 /home/serge/Travail/UPSSITECH/s5/PFR/git/sprint3/data/Textes/Textes_UTF8/05-La_circoncision_pourrait_r_E9duire_le_utf8.xml 1 100.000000 sri-pfr
7 0 /home/serge/Travail/UPSSITECH/s5/PFR/git/sprint3/data/Textes/Textes_UTF8/06-Sensibiliser__E0_la_vaccination_grippale_utf8.xml 2 15.000001 sri-pfr
7 0 /home/serge/Travail/UPSSITECH/s5/PFR/git/sprint3/data/Textes/Textes_UTF8/05-Edition___les_mots_et_utf8.xml 3 10.000000 sri-pfr
7 0 /home/serge/Travail/UPSSITECH/s5/PFR/git/sprint3/data/Textes/Textes_UTF8/14-Grippe_aviaire___l_OMS_exhorte_utf8.xml 4 10.000000 sri-pfr
7 0 /home/serge/Travail/UPSSITECH/s5/PFR/git/sprint3/data/Textes/Textes_UTF8/22-Grippe_aviaire___la_course_utf8.xml 5 10.000000 sri-pfr
7 0 /home/serge/Travail/UPSSITECH/s5/PFR/git/sprint3/data/Textes/Textes_UTF8/24-Canicules_et_s_E9cheresses_menacent_de_utf8.xml 6 10.000000 sri-pfr
7 0 /home/serge/Travail/UPSSITECH/s5/PFR/git/sprint3/data/Textes/Textes_UTF8/26-Grippe_aviaire___une_sixi_E8me_utf8.xml 7 10.000000 sri-pfr
7 0 /home/serge/Travail/UPSSITECH/s5/PFR/git/sprint3/data/Textes/Textes_UTF8/28-Danse___Robyn_Orlin_et_utf8.xml 8 10.000000 sri-pfr
7 0 /home/serge/Travail/UPSSITECH/s5/PFR/git/sprint3/data/Textes/Textes_UTF8/05-Au_stade_d_Abidjan,_la_d_E9faite_utf8.xml 9 5.000000 sri-pfr
8 0 /home/serge/Travail/UPSSITECH/s5/PFR/git/sprint3/data/Textes/Textes_UTF8/05-Le_Colombien_Juan_Pablo_Montoya_utf8.xml 1 100.000000 sri-pfr
8 0 /home/serge/Travail/UPSSITECH/s5/PFR/git/sprint3/data/Textes/Textes_UTF8/12-Fernando_Alonso_n_est_plus_qu__E0_utf8.xml 2 40.000001 sri-pfr
8 0 /home/serge/Travail/UPSSITECH/s5/PFR/git/sprint3/data/Textes/Textes_UTF8/21-La_France_se_r_E9veille_pour_utf8.xml 3 15.000001 sri-pfr
8 0 /home/serge/Travail/UPSSITECH/s5/PFR/git/sprint3/data/Textes/Textes_UTF8/22-Les_clubs_de_football_anglais_utf8.xml 4 15.000001 sri-pfr
8 0 /home/serge/Travail/UPSSITECH/s5/PFR/git/sprint3/data/Textes/Textes_UTF8/26-Tom_Boonen_sacr_E9_champion_du_utf8.xml 5 15.000001 sri-pfr
8 0 /home/serge/Travail/UPSSITECH/s5/PFR/git/sprint3/data/Textes/Textes_UTF8/05-Jean-Christophe_Bette_a_d_FB_attendre_utf8.xml 6 10.000000 sri-pfr
8 0 /home/serge/Travail/UPSSITECH/s5/PFR/git/sprint3/data/Textes/Textes_UTF8/05-L_apn_E9iste_fran_E7ais_Guillaume_N_E9ry_plonge_utf8.xml 7 10.000000 sri-pfr
8 0 /home/serge/Travail/UPSSITECH/s5/PFR/git/sprint3/data/Textes/Textes_UTF8/05-Photographie___Philip_Blenkinsop_a_utf8.xml 8 5.000000 sri-pfr
8 0 /home/serge/Travail/UPSSITECH/s5/PFR/git/sprint3/data/Textes/Textes_UTF8/06-Les_mauvais_comptes_d_une__E9limination_utf8.xml 9 5.000000 sri-pfr
9 0 /home/serge/Travail/UPSSITECH/s5/PFR/git/sprint3/data/Textes/Textes_UTF8/05-Le_th_E9_E2tre_de_texte_confront_E9_utf8.xml 1 100.000000 sri-pfr
9 0 /home/serge/Travail/UPSSITECH/s5/PFR/git/sprint3/data/Textes/Textes_UTF8/08-Th_E9_E2tre___l__E9chapp_E9e_belle,_peu_utf8.xml 2 15.000001 sri-pfr
9 0 /home/serge/Travail/UPSSITECH/s5/PFR/git/sprint3/data/Textes/Textes_UTF8/15-La_mort_de_Robert_Wise,_utf8.xml 3 15.000001 sri-pfr
9 0 /home/serge/Travail/UPSSITECH/s5/PFR/git/sprint3/data/Textes/Textes_UTF8/17-Anouk_Aim_E9e_et_Philippe_Noiret_utf8.xml 4 15.000001 sri-pfr
9 0 /home/serge/Travail/UPSSITECH/s5/PFR/git/sprint3/data/Textes/Textes_UTF8/05-Jean-Christophe_Bette_a_d_FB_attendre_utf8.xml 5 10.000000 sri-pfr
9 0 /home/serge/Travail/UPSSITECH/s5/PFR/git/sprint3/data/Textes/Textes_UTF8/05-L_apn_E9iste_fran_E7ais_Guillaume_N_E9ry_plonge_utf8.xml 6 10.000000 sri-pfr
9 0 /home/serge/Travail/UPSSITECH/s5/PFR/git/sprint3/data/Textes/Textes_UTF8/05-Tours_d_honneur_pour_les_athl_E8tes_utf8.xml 7 10.000000 sri-pfr
9 0 /home/serge/Travail/UPSSITECH/s5/PFR/git/sprint3/data/Textes/Textes_UTF8/06-Les_mauvais_comptes_d_une__E9limination_utf8.xml 8 10.000000 sri-pfr
9 0 /home/serge/Travail/UPSSITECH/s5/PFR/git/sprint3/data/Textes/Textes_UTF8/06-Sensibiliser__E0_la_vaccination_grippale_utf8.xml 9 10.000000 sri-pfr
10 0 /home/serge/Travail/UPSSITECH/s5/PFR/git/sprint3/data/Textes/Textes_UTF8/05-Musique__E9lectronique___l__E9lan_collectif_utf8.xml 1 100.000000 sri-pfr
10 0 /home/serge/Travail/UPSSITECH/s5/PFR/git/sprint3/data/Textes/Textes_UTF8/05-Rock___l_Illinois_magique_de_utf8.xml 2 10.000000 sri-pfr
10 0 /home/serge/Travail/UPSSITECH/s5/PFR/git/sprint3/data/Textes/Textes_UTF8/28-Festival___Ososph_E8re,_un_week-end_utf8.xml 3 10.000000 sri-pfr
10 0 /home/serge/Travail/UPSSITECH/s5/PFR/git/sprint3/data/Textes/Textes_UTF8/05-Jean-Christophe_Bette_a_d_FB_attendre_utf8.xml 4 5.000000 sri-pfr
10 0 /home/serge/Travail/UPSSITECH/s5/PFR/git/sprint3/data/Textes/Textes_UTF8/05-La_circoncision_pourrait_r_E9duire_le_utf8.xml 5 5.000000 sri-pfr
10 0 /home/serge/Travail/UPSSITECH/s5/PFR/git/sprint3/data/Textes/Textes_UTF8/06-Les_mauvais_comptes_d_une__E9limination_utf8.xml 6 5.000000 sri-pfr
10 0 /home/serge/Travail/UPSSITECH/s5/PFR/git/sprint3/data/Textes/Textes_UTF8/08-Carlos_do_Carmo____Le_utf8.xml 7 5.000000 sri-pfr
10 0 /home/serge/Travail/UPSSITECH/s5/PFR/git/sprint3/data/Textes/Textes_UTF8/12-Musique_classique___un__Oberon__utf8.xml 8 5.000000 sri-pfr
10 0 /home/serge/Travail/UPSSITECH/s5/PFR/git/sprint3/data/Textes/Textes_UTF8/12-Musiques_du_monde___les_utf8.xml 9 5.000000 sri-pfr
11 0 /home/serge/Travail/UPSSITECH/s5/PFR/git/sprint3/data/Textes/Textes_UTF8/05-Photographie___Philip_Blenkinsop_a_utf8.xml 1 100.000000 sri-pfr
11 0 /home/serge/Travail/UPSSITECH/s5/PFR/git/sprint3/data/Textes/Textes_UTF8/12-Fernando_Alonso_n_est_plus_qu__E0_utf8.xml 2 10.000000 sri-pfr
11 0 /home/serge/Travail/UPSSITECH/s5/PFR/git/sprint3/data/Textes/Textes_UTF8/22-Sursaut_des_Mon_E9gasques_apr_E8s_le_utf8.xml 3 10.000000 sri-pfr
11 0 /home/serge/Travail/UPSSITECH/s5/PFR/git/sprint3/data/Textes/Textes_UTF8/22-Ted_Stanger,_l_Am_E9ricain_de_service_utf8.xml 4 10.000000 sri-pfr
11 0 /home/serge/Travail/UPSSITECH/s5/PFR/git/sprint3/data/Textes/Textes_UTF8/28-Festival___Ososph_E8re,_un_week-end_utf8.xml 5 10.000000 sri-pfr
11 0 /home/serge/Travail/UPSSITECH/s5/PFR/git/sprint3/data/Textes/Textes_UTF8/29-Forte_r_E9duction_de_la_calotte_utf8.xml 6 10.000000 sri-pfr
11 0 /home/serge/Travail/UPSSITECH/s5/PFR/git/sprint3/data/Textes/Textes_UTF8/05-Le_Colombien_Juan_Pablo_Montoya_utf8.xml 7 5.000000 sri-pfr
11 0 /home/serge/Travail/UPSSITECH/s5/PFR/git/sprint3/data/Textes/Textes_UTF8/05-Le_th_E9_E2tre_de_texte_confront_E9_utf8.xml 8 5.000000 sri-pfr
11 0 /home/serge/Travail/UPSSITECH/s5/PFR/git/sprint3/data/Textes/Textes_UTF8/05-Prague_inaugure_les_Journ_E9es_europ_E9ennes_utf8.xml 9 5.000000 sri-pfr
12 0 /home/serge/Travail/UPSSITECH/s5/PFR/git/sprint3/data/Textes/Textes_UTF8/05-Prague_inaugure_les_Journ_E9es_europ_E9ennes_utf8.xml 1 100.000000 sri-pfr
12 0 /home/serge/Travail/UPSSITECH/s5/PFR/git/sprint3/data/Textes/Textes_UTF8/18-Les_22e_Journ_E9es_du_Patrimoine_utf8.xml 2 25.000000 sri-pfr
12 0 /home/serge/Travail/UPSSITECH/s5/PFR/git/sprint3/data/Textes/Textes_UTF8/21-La_France_se_r_E9veille_pour_utf8.xml 3 20.000000 sri-pfr
12 0 /home/serge/Travail/UPSSITECH/s5/PFR/git/sprint3/data/Textes/Textes_UTF8/12-Succ_E8s_sur_les_tatamis,_pol_E9mique_utf8.xml 4 15.000001 sri-pfr
12 0 /home/serge/Travail/UPSSITECH/s5/PFR/git/sprint3/data/Textes/Textes_UTF8/15-_Si_on_veut_aller_trop_utf8.xml 5 15.000001 sri-pfr
12 0 /home/serge/Travail/UPSSITECH/s5/PFR/git/sprint3/data/Textes/Textes_UTF8/22-Ted_Stanger,_l_Am_E9ricain_de_service_utf8.xml 6 15.000001 sri-pfr
12 0 /home/serge/Travail/UPSSITECH/s5/PFR/git/sprint3/data/Textes/Textes_UTF8/27-Le_Stade_de_France_s_ouvre_utf8.xml 7 15.000001 sri-pfr
12 0 /home/serge/Travail/UPSSITECH/s5/PFR/git/sprint3/data/Textes/Textes_UTF8/08-L__E9quipe_de_France_victime_d_un_utf8.xml 8 10.000000 sri-pfr
12 0 /home/serge/Travail/UPSSITECH/s5/PFR/git/sprint3/data/Textes/Textes_UTF8/08-Pav_E9,_tour_ou_silo,_cinq_utf8.xml 9 10.000000 sri-pfr
13 0 /home/serge/Travail/UPSSITECH/s5/PFR/git/sprint3/data/Textes/Textes_UTF8/05-Rock___l_Illinois_magique_de_utf8.xml 1 100.000000 sri-pfr
13 0 /home/serge/Travail/UPSSITECH/s5/PFR/git/sprint3/data/Textes/Textes_UTF8/12-Musiques_du_monde___les_utf8.xml 2 15.000001 sri-pfr
13 0 /home/serge/Travail/UPSSITECH/s5/PFR/git/sprint3/data/Textes/Textes_UTF8/05-Musique__E9lectronique___l__E9lan_collectif_utf8.xml 3 10.000000 sri-pfr
13 0 /home/serge/Travail/UPSSITECH/s5/PFR/git/sprint3/data/Textes/Textes_UTF8/26-Jazz___Manu_Katch_E9,_haut_utf8.xml 4 10.000000 sri-pfr
13 0 /home/serge/Travail/UPSSITECH/s5/PFR/git/sprint3/data/Textes/Textes_UTF8/05-Au_stade_d_Abidjan,_la_d_E9faite_utf8.xml 5 5.000000 sri-pfr
13 0 /home/serge/Travail/UPSSITECH/s5/PFR/git/sprint3/data/Textes/Textes_UTF8/08-Sous_l_effet_du_r_E9chauffement,_les_utf8.xml 6 5.000000 sri-pfr
13 0 /home/serge/Travail/UPSSITECH/s5/PFR/git/sprint3/data/Textes/Textes_UTF8/12-Fernando_Alonso_n_est_plus_qu__E0_utf8.xml 7 5.000000 sri-pfr
13 0 /home/serge/Travail/UPSSITECH/s5/PFR/git/sprint3/data/Textes/Textes_UTF8/12-Musique_classique___un__Oberon__utf8.xml 8 5.000000 sri-pfr
13 0 /home/serge/Travail/UPSSITECH/s5/PFR/git/sprint3/data/Textes/Textes_UTF8/15-Le_Th_E9_E2tre_des_Champs-Elys_E9es_s_offre_utf8.xml 9 5.000000 sri-pfr
14 0 /home/serge/Travail/UPSSITECH/s5/PFR/git/sprint3/data/Textes/Textes_UTF8/05-Tours_d_honneur_pour_les_athl_E8tes_utf8.xml 1 100.000000 sri-pfr
14 0 /home/serge/Travail/UPSSITECH/s5/PFR/git/sprint3/data/Textes/05-Tours_d_honneur_pour_les_athl_E8tes.xml 2 50.000000 sri-pfr
14 0 /home/serge/Travail/UPSSITECH/s5/PFR/git/sprint3/data/Textes/Textes_UTF8/06-Les_mauvais_comptes_d_une__E9limination_utf8.xml 3 20.000000 sri-pfr
14 0 /home/serge/Travail/UPSSITECH/s5/PFR/git/sprint3/data/Textes/Textes_UTF8/05-L_apn_E9iste_fran_E7ais_Guillaume_N_E9ry_plonge_utf8.xml 4 15.000001 sri-pfr
14 0 /home/serge/Travail/UPSSITECH/s5/PFR/git/sprint3/data/Textes/Textes_UTF8/12-Succ_E8s_sur_les_tatamis,_pol_E9mique_utf8.xml 5 15.000001 sri-pfr
14 0 /home/serge/Travail/UPSSITECH/s5/PFR/git/sprint3/data/Textes/Textes_UTF8/21-La_France_se_r_E9veille_pour_utf8.xml 6 15.000001 sri-pfr
14 0 /home/serge/Travail/UPSSITECH/s5/PFR/git/sprint3/data/Textes/Textes_UTF8/03-Des_chercheurs_parviennent__E0_r_E9g_E9n_E9rer_utf8.xml 7 10.000000 sri-pfr
14 0 /home/serge/Travail/UPSSITECH/s5/PFR/git/sprint3/data/Textes/Textes_UTF8/05-Le_th_E9_E2tre_de_texte_confront_E9_utf8.xml 8 10.000000 sri-pfr
14 0 /home/serge/Travail/UPSSITECH/s5/PFR/git/sprint3/data/Textes/Textes_UTF8/06-La_contamination_du_ma_EFs_par_utf8.xml 9 10.000000 sri-pfr
15 0 /home/serge/Travail/UPSSITECH/s5/PFR/git/sprint3/data/Textes/Textes_UTF8/06-La_contamination_du_ma_EFs_par_utf8.xml 1 100.000000 sri-pfr
15 0 /home/serge/Travail/UPSSITECH/s5/PFR/git/sprint3/data/Textes/Textes_UTF8/03-Des_chercheurs_parviennent__E0_r_E9g_E9n_E9rer_utf8.xml 2 10.000000 sri-pfr
15 0 /home/serge/Travail/UPSSITECH/s5/PFR/git/sprint3/data/Textes/Textes_UTF8/05-Tours_d_honneur_pour_les_athl_E8tes_utf8.xml 3 10.000000 sri-pfr
15 0 /home/serge/Travail/UPSSITECH/s5/PFR/git/sprint3/data/Textes/Textes_UTF8/06-Les_mauvais_comptes_d_une__E9limination_utf8.xml 4 10.000000 sri-pfr
15 0 /home/serge/Travail/UPSSITECH/s5/PFR/git/sprint3/data/Textes/Textes_UTF8/15-Le_Th_E9_E2tre_des_Champs-Elys_E9es_s_offre_utf8.xml 5 10.000000 sri-pfr
15 0 /home/serge/Travail/UPSSITECH/s5/PFR/git/sprint3/data/Textes/Textes_UTF8/15-Un_quasar_solitaire_bouleverse_les_utf8.xml 6 10.000000 sri-pfr
15 0 /home/serge/Travail/UPSSITECH/s5/PFR/git/sprint3/data/Textes/Textes_UTF8/17-Une__E9quipe_fran_E7aise_a_r_E9ussi_utf8.xml 7 10.000000 sri-pfr
15 0 /home/serge/Travail/UPSSITECH/s5/PFR/git/sprint3/data/Textes/Textes_UTF8/27-A_Lens,_le_Louvre_sera_utf8.xml 8 10.000000 sri-pfr
15 0 /home/serge/Travail/UPSSITECH/s5/PFR/git/sprint3/data/Textes/Textes_UTF8/05-Au_stade_d_Abidjan,_la_d_E9faite_utf8.xml 9 5.000000 sri-pfr
