1 0 /home/serge/Travail/UPSSITECH/s5/PFR/git/sprint3/data/Sons/Corpus/corpus_m6.bin 1 1.000000 sri-pfr
1 0 /home/serge/Travail/UPSSITECH/s5/PFR/git/sprint3/data/Sons/Corpus/corpus_m6_LE.bin 2 1.000000 sri-pfr
1 0 /home/serge/Travail/UPSSITECH/s5/PFR/git/sprint3/data/Sons/Requete/jingle_m6.bin 3 0.990904 sri-pfr
1 0 /home/serge/Travail/UPSSITECH/s5/PFR/git/sprint3/data/Sons/Requete/jingle_m6_LE.bin 4 0.990904 sri-pfr
2 0 /home/serge/Travail/UPSSITECH/s5/PFR/git/sprint3/data/Sons/Requete/jingle_m6.bin 1 1.000000 sri-pfr
2 0 /home/serge/Travail/UPSSITECH/s5/PFR/git/sprint3/data/Sons/Requete/jingle_m6_LE.bin 2 1.000000 sri-pfr
2 0 /home/serge/Travail/UPSSITECH/s5/PFR/git/sprint3/data/Sons/Corpus/corpus_m6.bin 3 0.990904 sri-pfr
2 0 /home/serge/Travail/UPSSITECH/s5/PFR/git/sprint3/data/Sons/Corpus/corpus_m6_LE.bin 4 0.990904 sri-pfr
